max_age,ncad
5,0.043520804
10,0.082620434
15,0.121132971
20,0.1640547
25,0.233775051
30,0.319506682
35,0.396415934
40,0.463488374
45,0.522125838
50,0.587005663
55,0.663727205
60,0.733160001
65,0.791461983
70,0.84251915
75,0.884226754
80,1
