Date,Dead
27.03.2020,0
28.03.2020,0
30.03.2020,0
31.03.2020,1
01.04.2020,1
02.04.2020,1
03.04.2020,1
04.04.2020,3
05.04.2020,4
06.04.2020,5
07.04.2020,5
08.04.2020,6
09.04.2020,6
10.04.2020,7
11.04.2020,7
12.04.2020,7
13.04.2020,7
14.04.2020,7
15.04.2020,7
16.04.2020,7
17.04.2020,7
18.04.2020,7
19.04.2020,7
20.04.2020,7
21.04.2020,10
22.04.2020,10
23.04.2020,10
24.04.2020,10
25.04.2020,10
26.04.2020,10
27.04.2020,10
28.04.2020,13
29.04.2020,13
30.04.2020,13
01.05.2020,13
02.05.2020,13
03.05.2020,13
04.05.2020,13
05.05.2020,14
06.05.2020,14
07.05.2020,14
08.05.2020,14
09.05.2020,14
10.05.2020,14
11.05.2020,14
12.05.2020,14
13.05.2020,14
14.05.2020,15
15.05.2020,15
16.05.2020,15
17.05.2020,15
18.05.2020,15
19.05.2020,15
20.05.2020,15
21.05.2020,15
22.05.2020,15
23.05.2020,15
24.05.2020,15
25.05.2020,15
26.05.2020,15
27.05.2020,15
28.05.2020,16
29.05.2020,16
30.05.2020,16
31.05.2020,16
01.06.2020,16
02.06.2020,16
03.06.2020,17
04.06.2020,17
05.06.2020,17
06.06.2020,17
07.06.2020,17
08.06.2020,17
09.06.2020,17
10.06.2020,17
11.06.2020,18
12.06.2020,18
13.06.2020,18
14.06.2020,18
15.06.2020,18
16.06.2020,18
17.06.2020,18
18.06.2020,18
19.06.2020,18
20.06.2020,18
21.06.2020,18
22.06.2020,18
23.06.2020,18
24.06.2020,18
25.06.2020,18
26.06.2020,18
27.06.2020,18
28.06.2020,18
29.06.2020,18
30.06.2020,18
01.07.2020,18
02.07.2020,18
03.07.2020,18
04.07.2020,18
05.07.2020,18
06.07.2020,18
07.07.2020,18
08.07.2020,18
09.07.2020,18
10.07.2020,18
11.07.2020,18
12.07.2020,18
13.07.2020,18
14.07.2020,18
15.07.2020,18
16.07.2020,18
17.07.2020,18
18.07.2020,18
19.07.2020,18
20.07.2020,18
21.07.2020,18
22.07.2020,18
23.07.2020,18
24.07.2020,18
25.07.2020,18
26.07.2020,18
27.07.2020,18
28.07.2020,18
29.07.2020,18
30.07.2020,18
31.07.2020,18
01.08.2020,18
02.08.2020,18
03.08.2020,18
04.08.2020,18
05.08.2020,18
06.08.2020,18
07.08.2020,18
08.08.2020,18
09.08.2020,18
10.08.2020,18
11.08.2020,18
12.08.2020,18
13.08.2020,18
14.08.2020,18
15.08.2020,18
16.08.2020,18
17.08.2020,18
18.08.2020,18
19.08.2020,18
20.08.2020,18
21.08.2020,18
22.08.2020,18
23.08.2020,18
24.08.2020,18
25.08.2020,18
26.08.2020,18
27.08.2020,18
28.08.2020,18
29.08.2020,18
30.08.2020,18
31.08.2020,18
01.09.2020,18
02.09.2020,18
03.09.2020,18
04.09.2020,18
05.09.2020,18
06.09.2020,18
07.09.2020,18
08.09.2020,18
09.09.2020,18
10.09.2020,18
11.09.2020,18
12.09.2020,18
13.09.2020,18
14.09.2020,18
15.09.2020,18
16.09.2020,18
17.09.2020,18
18.09.2020,18
19.09.2020,18
20.09.2020,18
21.09.2020,18
22.09.2020,18
23.09.2020,18
24.09.2020,18
25.09.2020,18
26.09.2020,18
27.09.2020,18
28.09.2020,18
29.09.2020,18
30.09.2020,18
01.10.2020,18
