Date,Cases,Recovered,Dead,Active
2020-03-04,0,,,0.0
2020-03-05,0,,,0.0
2020-03-06,1,,,1.0
2020-03-07,1,,,1.0
2020-03-08,1,,,1.0
2020-03-09,1,,,1.0
2020-03-10,1,,,1.0
2020-03-11,1,,,1.0
2020-03-12,1,,,1.0
2020-03-13,2,,,2.0
2020-03-14,2,,,2.0
2020-03-15,5,,,5.0
2020-03-16,5,,,5.0
2020-03-17,8,,,8.0
2020-03-18,12,,,12.0
2020-03-19,13,,,13.0
2020-03-20,18,,,18.0
2020-03-21,25,,,25.0
2020-03-22,29,,,29.0
2020-03-23,56,,,56.0
2020-03-24,58,,,58.0
2020-03-25,63,,,63.0
2020-03-26,73,,,73.0
2020-03-27,80,,0.0,80.0
2020-03-28,94,,0.0,94.0
2020-03-29,109,,,109.0
2020-03-30,138,43.0,0.0,95.0
2020-03-31,144,43.0,1.0,100.0
2020-04-01,148,43.0,1.0,104.0
2020-04-02,169,43.0,1.0,125.0
2020-04-03,189,44.0,1.0,144.0
2020-04-04,209,44.0,3.0,162.0
2020-04-05,216,64.0,4.0,148.0
2020-04-06,225,64.0,5.0,156.0
2020-04-07,231,64.0,5.0,162.0
2020-04-08,232,70.0,6.0,156.0
2020-04-09,241,70.0,6.0,165.0
2020-04-10,247,141.0,7.0,99.0
2020-04-11,269,167.0,7.0,95.0
2020-04-12,271,168.0,7.0,96.0
2020-04-13,271,174.0,7.0,90.0
2020-04-14,273,175.0,7.0,91.0
2020-04-15,275,180.0,7.0,88.0
2020-04-16,279,180.0,7.0,92.0
2020-04-17,284,180.0,7.0,97.0
2020-04-18,287,180.0,7.0,100.0
2020-04-19,289,183.0,7.0,99.0
2020-04-20,291,183.0,7.0,101.0
2020-04-21,291,199.0,10.0,82.0
2020-04-22,292,204.0,10.0,78.0
2020-04-23,292,214.0,10.0,68.0
2020-04-24,294,214.0,10.0,70.0
2020-04-25,294,216.0,10.0,68.0
2020-04-26,299,218.0,10.0,71.0
2020-04-27,300,222.0,10.0,68.0
2020-04-28,301,238.0,13.0,50.0
2020-04-29,301,241.0,13.0,47.0
2020-04-30,302,246.0,13.0,43.0
2020-05-01,304,287.0,13.0,4.0
2020-05-02,305,251.0,13.0,41.0
2020-05-03,306,251.0,13.0,42.0
2020-05-04,307,252.0,13.0,42.0
2020-05-05,307,252.0,14.0,41.0
2020-05-06,307,267.0,14.0,26.0
2020-05-07,308,271.0,14.0,23.0
2020-05-08,308,271.0,14.0,23.0
2020-05-09,312,271.0,14.0,27.0
2020-05-10,312,271.0,14.0,27.0
2020-05-11,314,271.0,14.0,29.0
2020-05-12,316,273.0,14.0,29.0
2020-05-13,319,275.0,14.0,30.0
2020-05-14,320,276.0,15.0,29.0
2020-05-15,323,276.0,15.0,32.0
2020-05-16,323,276.0,15.0,32.0
2020-05-17,323,276.0,15.0,32.0
2020-05-18,323,280.0,15.0,28.0
2020-05-19,326,284.0,15.0,27.0
2020-05-20,326,284.0,15.0,27.0
2020-05-21,326,284.0,15.0,27.0
2020-05-22,326,287.0,15.0,24.0
2020-05-23,326,287.0,15.0,24.0
2020-05-24,326,287.0,15.0,24.0
2020-05-25,326,287.0,15.0,24.0
2020-05-26,327,292.0,15.0,20.0
2020-05-27,327,300.0,15.0,12.0
2020-05-28,327,303.0,16.0,8.0
2020-05-29,328,304.0,16.0,8.0
2020-05-30,330,304.0,16.0,10.0
2020-05-31,330,304.0,16.0,10.0
2020-06-01,330,304.0,16.0,10.0
2020-06-02,330,304.0,16.0,10.0
2020-06-03,330,304.0,17.0,9.0
2020-06-04,330,304.0,17.0,9.0
2020-06-05,331,304.0,17.0,10.0
2020-06-06,331,304.0,17.0,10.0
2020-06-07,331,304.0,17.0,10.0
2020-06-08,331,305.0,17.0,9.0
2020-06-09,331,305.0,17.0,9.0
2020-06-10,331,305.0,17.0,9.0
2020-06-11,331,307.0,18.0,6.0
2020-06-12,331,308.0,18.0,5.0
2020-06-13,331,308.0,18.0,5.0
2020-06-14,331,308.0,18.0,5.0
2020-06-15,331,308.0,18.0,5.0
2020-06-16,331,312.0,18.0,1.0
2020-06-17,331,313.0,18.0,0.0
2020-06-18,331,313.0,18.0,0.0
2020-06-19,331,313.0,18.0,0.0
2020-06-20,332,313.0,18.0,1.0
2020-06-21,332,313.0,18.0,1.0
2020-06-22,333,313.0,18.0,2.0
2020-06-23,333,313.0,18.0,2.0
2020-06-24,334,313.0,18.0,3.0
2020-06-25,335,313.0,18.0,4.0
2020-06-26,335,313.0,18.0,4.0
2020-06-27,336,313.0,18.0,5.0
2020-06-28,336,313.0,18.0,5.0
2020-06-29,337,313.0,18.0,6.0
2020-06-30,337,313.0,18.0,6.0
2020-07-01,337,313.0,18.0,6.0
2020-07-02,338,315.0,18.0,5.0
2020-07-03,338,317.0,18.0,3.0
2020-07-04,351,317.0,18.0,16.0
2020-07-05,351,317.0,18.0,16.0
2020-07-06,351,317.0,18.0,16.0
2020-07-07,351,317.0,18.0,16.0
2020-07-08,351,318.0,18.0,15.0
2020-07-09,351,318.0,18.0,15.0
2020-07-10,351,318.0,18.0,15.0
2020-07-11,351,318.0,18.0,15.0
2020-07-12,352,318.0,18.0,16.0
2020-07-13,352,318.0,18.0,16.0
2020-07-14,352,319.0,18.0,15.0
2020-07-15,352,319.0,18.0,15.0
2020-07-16,352,319.0,18.0,15.0
2020-07-17,352,333.0,18.0,1.0
2020-07-18,352,333.0,18.0,1.0
2020-07-19,352,333.0,18.0,1.0
2020-07-20,352,333.0,18.0,1.0
2020-07-21,352,333.0,18.0,1.0
2020-07-22,353,333.0,18.0,2.0
2020-07-23,353,333.0,18.0,2.0
2020-07-24,354,333.0,18.0,3.0
2020-07-25,354,333.0,18.0,3.0
2020-07-26,354,333.0,18.0,3.0
2020-07-27,354,333.0,18.0,3.0
2020-07-28,354,335.0,18.0,1.0
2020-07-29,354,335.0,18.0,1.0
2020-07-30,355,335.0,18.0,2.0
2020-07-31,356,335.0,18.0,3.0
2020-08-01,357,335.0,18.0,4.0
2020-08-02,357,335.0,18.0,4.0
2020-08-03,357,335.0,18.0,4.0
2020-08-04,357,335.0,18.0,4.0
2020-08-05,360,335.0,18.0,7.0
2020-08-06,360,335.0,18.0,7.0
2020-08-07,363,335.0,18.0,10.0
2020-08-08,363,335.0,18.0,10.0
2020-08-09,363,335.0,18.0,10.0
2020-08-10,365,338.0,18.0,9.0
2020-08-11,366,338.0,18.0,10.0
2020-08-12,366,338.0,18.0,10.0
2020-08-13,366,342.0,18.0,6.0
2020-08-14,368,342.0,18.0,8.0
2020-08-15,368,342.0,18.0,8.0
2020-08-16,368,342.0,18.0,8.0
2020-08-17,370,345.0,18.0,7.0
2020-08-18,373,345.0,18.0,10.0
2020-08-19,373,349.0,18.0,6.0
2020-08-20,377,349.0,18.0,10.0
2020-08-21,379,349.0,18.0,12.0
2020-08-22,381,349.0,18.0,14.0
2020-08-23,381,349.0,18.0,14.0
2020-08-24,381,350.0,18.0,13.0
2020-08-25,387,352.0,18.0,17.0
2020-08-26,389,355.0,18.0,16.0
2020-08-27,395,356.0,18.0,21.0
2020-08-28,397,362.0,18.0,17.0
2020-08-29,398,362.0,18.0,18.0
2020-08-30,399,362.0,18.0,19.0
2020-08-31,399,368.0,18.0,13.0
2020-09-01,406,367.0,18.0,21.0
2020-09-02,408,371.0,18.0,19.0
2020-09-03,410,371.0,18.0,21.0
2020-09-04,413,375.0,18.0,20.0
2020-09-05,414,375.0,18.0,21.0
2020-09-06,414,375.0,18.0,21.0
2020-09-07,417,376.0,18.0,23.0
2020-09-08,418,378.0,18.0,22.0
2020-09-09,420,385.0,18.0,17.0
2020-09-10,420,389.0,18.0,13.0
2020-09-11,421,390.0,18.0,13.0
2020-09-12,423,390.0,18.0,15.0
2020-09-13,423,390.0,18.0,15.0
2020-09-14,428,395.0,18.0,15.0
2020-09-15,429,398.0,18.0,13.0
2020-09-16,430,401.0,18.0,11.0
2020-09-17,436,401.0,18.0,17.0
2020-09-18,439,403.0,18.0,18.0
2020-09-19,440,403.0,18.0,19.0
2020-09-20,442,403.0,18.0,21.0
2020-09-21,446,411.0,18.0,17.0
2020-09-22,446,416.0,18.0,12.0
2020-09-23,448,417.0,18.0,13.0
2020-09-24,457,419.0,18.0,20.0
2020-09-25,460,421.0,18.0,21.0
2020-09-26,465,421.0,18.0,26.0
2020-09-27,465,421.0,18.0,26.0
2020-09-28,468,424.0,18.0,26.0
2020-09-29,469,424.0,18.0,27.0
2020-09-30,473,430.0,18.0,25.0
2020-10-01,476,430.0,18.0,28.0
