ObjectId,IdBundesland,Bundesland,Landkreis,Altersgruppe,Geschlecht,AnzahlFall,AnzahlTodesfall,Meldedatum,IdLandkreis,Datenstand,NeuerFall,NeuerTodesfall,Refdatum,NeuGenesen,AnzahlGenesen,IstErkrankungsbeginn,Altersgruppe2,,,CUMUL
37853685,3,Niedersachsen,SK Braunschweig,A15-A34,W,1,0,2020/03/05 00:00:00,3101,"24.09.2020, 00:00 Uhr",0,-9,2020/03/03 00:00:00,0,1,1,Nicht übermittelt,,,1
37853747,3,Niedersachsen,SK Braunschweig,A35-A59,M,1,0,2020/03/11 00:00:00,3101,"24.09.2020, 00:00 Uhr",0,-9,2020/03/10 00:00:00,0,1,1,Nicht übermittelt,,,2
37853748,3,Niedersachsen,SK Braunschweig,A35-A59,M,1,0,2020/03/14 00:00:00,3101,"24.09.2020, 00:00 Uhr",0,-9,2020/03/10 00:00:00,0,1,1,Nicht übermittelt,,,3
37853818,3,Niedersachsen,SK Braunschweig,A35-A59,W,1,0,2020/03/14 00:00:00,3101,"24.09.2020, 00:00 Uhr",0,-9,2020/03/07 00:00:00,0,1,1,Nicht übermittelt,,,4
37853946,3,Niedersachsen,SK Braunschweig,A60-A79,W,1,0,2020/03/14 00:00:00,3101,"24.09.2020, 00:00 Uhr",0,-9,2020/03/02 00:00:00,0,1,1,Nicht übermittelt,,,5
37853749,3,Niedersachsen,SK Braunschweig,A35-A59,M,1,0,2020/03/15 00:00:00,3101,"24.09.2020, 00:00 Uhr",0,-9,2020/03/10 00:00:00,0,1,1,Nicht übermittelt,,,6
37853819,3,Niedersachsen,SK Braunschweig,A35-A59,W,1,0,2020/03/15 00:00:00,3101,"24.09.2020, 00:00 Uhr",0,-9,2020/03/10 00:00:00,0,1,1,Nicht übermittelt,,,7
37853904,3,Niedersachsen,SK Braunschweig,A60-A79,M,1,0,2020/03/15 00:00:00,3101,"24.09.2020, 00:00 Uhr",0,-9,2020/03/12 00:00:00,0,1,1,Nicht übermittelt,,,8
37853820,3,Niedersachsen,SK Braunschweig,A35-A59,W,1,0,2020/03/17 00:00:00,3101,"24.09.2020, 00:00 Uhr",0,-9,2020/03/10 00:00:00,0,1,1,Nicht übermittelt,,,9
37853821,3,Niedersachsen,SK Braunschweig,A35-A59,W,1,0,2020/03/17 00:00:00,3101,"24.09.2020, 00:00 Uhr",0,-9,2020/03/17 00:00:00,0,1,0,Nicht übermittelt,,,10
37853905,3,Niedersachsen,SK Braunschweig,A60-A79,M,1,0,2020/03/17 00:00:00,3101,"24.09.2020, 00:00 Uhr",0,-9,2020/03/09 00:00:00,0,1,1,Nicht übermittelt,,,11
37853750,3,Niedersachsen,SK Braunschweig,A35-A59,M,1,0,2020/03/18 00:00:00,3101,"24.09.2020, 00:00 Uhr",0,-9,2020/03/14 00:00:00,0,1,1,Nicht übermittelt,,,12
37853822,3,Niedersachsen,SK Braunschweig,A35-A59,W,1,0,2020/03/18 00:00:00,3101,"24.09.2020, 00:00 Uhr",0,-9,2020/03/11 00:00:00,0,1,1,Nicht übermittelt,,,13
37853627,3,Niedersachsen,SK Braunschweig,A15-A34,M,1,0,2020/03/19 00:00:00,3101,"24.09.2020, 00:00 Uhr",0,-9,2020/03/16 00:00:00,0,1,1,Nicht übermittelt,,,14
37853686,3,Niedersachsen,SK Braunschweig,A15-A34,W,1,0,2020/03/19 00:00:00,3101,"24.09.2020, 00:00 Uhr",0,-9,2020/03/19 00:00:00,0,1,0,Nicht übermittelt,,,15
37853823,3,Niedersachsen,SK Braunschweig,A35-A59,W,1,0,2020/03/19 00:00:00,3101,"24.09.2020, 00:00 Uhr",0,-9,2020/03/12 00:00:00,0,1,1,Nicht übermittelt,,,16
37853906,3,Niedersachsen,SK Braunschweig,A60-A79,M,1,0,2020/03/19 00:00:00,3101,"24.09.2020, 00:00 Uhr",0,-9,2020/03/19 00:00:00,0,1,0,Nicht übermittelt,,,17
37853997,3,Niedersachsen,SK Braunschweig,A80+,W,1,0,2020/03/19 00:00:00,3101,"24.09.2020, 00:00 Uhr",0,-9,2020/03/31 00:00:00,0,1,1,Nicht übermittelt,,,18
37853628,3,Niedersachsen,SK Braunschweig,A15-A34,M,1,0,2020/03/20 00:00:00,3101,"24.09.2020, 00:00 Uhr",0,-9,2020/03/13 00:00:00,0,1,1,Nicht übermittelt,,,19
37853687,3,Niedersachsen,SK Braunschweig,A15-A34,W,2,0,2020/03/20 00:00:00,3101,"24.09.2020, 00:00 Uhr",0,-9,2020/03/12 00:00:00,0,2,1,Nicht übermittelt,,,21
37853688,3,Niedersachsen,SK Braunschweig,A15-A34,W,1,0,2020/03/20 00:00:00,3101,"24.09.2020, 00:00 Uhr",0,-9,2020/03/15 00:00:00,0,1,1,Nicht übermittelt,,,22
37853751,3,Niedersachsen,SK Braunschweig,A35-A59,M,1,0,2020/03/20 00:00:00,3101,"24.09.2020, 00:00 Uhr",0,-9,2020/03/12 00:00:00,0,1,1,Nicht übermittelt,,,23
37853824,3,Niedersachsen,SK Braunschweig,A35-A59,W,1,0,2020/03/20 00:00:00,3101,"24.09.2020, 00:00 Uhr",0,-9,2020/03/11 00:00:00,0,1,1,Nicht übermittelt,,,24
37853825,3,Niedersachsen,SK Braunschweig,A35-A59,W,1,0,2020/03/20 00:00:00,3101,"24.09.2020, 00:00 Uhr",0,-9,2020/03/13 00:00:00,0,1,1,Nicht übermittelt,,,25
37853826,3,Niedersachsen,SK Braunschweig,A35-A59,W,1,0,2020/03/20 00:00:00,3101,"24.09.2020, 00:00 Uhr",0,-9,2020/03/14 00:00:00,0,1,1,Nicht übermittelt,,,26
37853752,3,Niedersachsen,SK Braunschweig,A35-A59,M,1,0,2020/03/21 00:00:00,3101,"24.09.2020, 00:00 Uhr",0,-9,2020/03/19 00:00:00,0,1,1,Nicht übermittelt,,,27
37853827,3,Niedersachsen,SK Braunschweig,A35-A59,W,1,0,2020/03/21 00:00:00,3101,"24.09.2020, 00:00 Uhr",0,-9,2020/03/14 00:00:00,0,1,1,Nicht übermittelt,,,28
37853828,3,Niedersachsen,SK Braunschweig,A35-A59,W,1,0,2020/03/21 00:00:00,3101,"24.09.2020, 00:00 Uhr",0,-9,2020/03/18 00:00:00,0,1,1,Nicht übermittelt,,,29
37853947,3,Niedersachsen,SK Braunschweig,A60-A79,W,1,0,2020/03/21 00:00:00,3101,"24.09.2020, 00:00 Uhr",0,-9,2020/03/16 00:00:00,0,1,1,Nicht übermittelt,,,30
37853608,3,Niedersachsen,SK Braunschweig,A00-A04,M,1,0,2020/03/22 00:00:00,3101,"24.09.2020, 00:00 Uhr",0,-9,2020/03/22 00:00:00,0,1,0,Nicht übermittelt,,,31
37853612,3,Niedersachsen,SK Braunschweig,A00-A04,W,1,0,2020/03/22 00:00:00,3101,"24.09.2020, 00:00 Uhr",0,-9,2020/03/22 00:00:00,0,1,0,Nicht übermittelt,,,32
37853629,3,Niedersachsen,SK Braunschweig,A15-A34,M,1,0,2020/03/22 00:00:00,3101,"24.09.2020, 00:00 Uhr",0,-9,2020/03/15 00:00:00,0,1,1,Nicht übermittelt,,,33
37853689,3,Niedersachsen,SK Braunschweig,A15-A34,W,1,0,2020/03/22 00:00:00,3101,"24.09.2020, 00:00 Uhr",0,-9,2020/03/14 00:00:00,0,1,1,Nicht übermittelt,,,34
37853690,3,Niedersachsen,SK Braunschweig,A15-A34,W,1,0,2020/03/22 00:00:00,3101,"24.09.2020, 00:00 Uhr",0,-9,2020/03/15 00:00:00,0,1,1,Nicht übermittelt,,,35
37853691,3,Niedersachsen,SK Braunschweig,A15-A34,W,1,0,2020/03/22 00:00:00,3101,"24.09.2020, 00:00 Uhr",0,-9,2020/03/19 00:00:00,0,1,1,Nicht übermittelt,,,36
37853753,3,Niedersachsen,SK Braunschweig,A35-A59,M,1,0,2020/03/22 00:00:00,3101,"24.09.2020, 00:00 Uhr",0,-9,2020/03/10 00:00:00,0,1,1,Nicht übermittelt,,,37
37853754,3,Niedersachsen,SK Braunschweig,A35-A59,M,2,0,2020/03/22 00:00:00,3101,"24.09.2020, 00:00 Uhr",0,-9,2020/03/12 00:00:00,0,2,1,Nicht übermittelt,,,39
37853755,3,Niedersachsen,SK Braunschweig,A35-A59,M,3,0,2020/03/22 00:00:00,3101,"24.09.2020, 00:00 Uhr",0,-9,2020/03/14 00:00:00,0,3,1,Nicht übermittelt,,,42
37853829,3,Niedersachsen,SK Braunschweig,A35-A59,W,1,0,2020/03/22 00:00:00,3101,"24.09.2020, 00:00 Uhr",0,-9,2020/03/07 00:00:00,0,1,1,Nicht übermittelt,,,43
37853830,3,Niedersachsen,SK Braunschweig,A35-A59,W,1,0,2020/03/22 00:00:00,3101,"24.09.2020, 00:00 Uhr",0,-9,2020/03/09 00:00:00,0,1,1,Nicht übermittelt,,,44
37853831,3,Niedersachsen,SK Braunschweig,A35-A59,W,1,0,2020/03/22 00:00:00,3101,"24.09.2020, 00:00 Uhr",0,-9,2020/03/13 00:00:00,0,1,1,Nicht übermittelt,,,45
37853832,3,Niedersachsen,SK Braunschweig,A35-A59,W,1,0,2020/03/22 00:00:00,3101,"24.09.2020, 00:00 Uhr",0,-9,2020/03/15 00:00:00,0,1,1,Nicht übermittelt,,,46
37853833,3,Niedersachsen,SK Braunschweig,A35-A59,W,1,0,2020/03/22 00:00:00,3101,"24.09.2020, 00:00 Uhr",0,-9,2020/03/16 00:00:00,0,1,1,Nicht übermittelt,,,47
37853834,3,Niedersachsen,SK Braunschweig,A35-A59,W,1,0,2020/03/22 00:00:00,3101,"24.09.2020, 00:00 Uhr",0,-9,2020/03/17 00:00:00,0,1,1,Nicht übermittelt,,,48
37853835,3,Niedersachsen,SK Braunschweig,A35-A59,W,1,0,2020/03/22 00:00:00,3101,"24.09.2020, 00:00 Uhr",0,-9,2020/03/22 00:00:00,0,1,0,Nicht übermittelt,,,49
37853907,3,Niedersachsen,SK Braunschweig,A60-A79,M,1,0,2020/03/22 00:00:00,3101,"24.09.2020, 00:00 Uhr",0,-9,2020/03/06 00:00:00,0,1,1,Nicht übermittelt,,,50
37853908,3,Niedersachsen,SK Braunschweig,A60-A79,M,2,0,2020/03/22 00:00:00,3101,"24.09.2020, 00:00 Uhr",0,-9,2020/03/14 00:00:00,0,2,1,Nicht übermittelt,,,52
37853909,3,Niedersachsen,SK Braunschweig,A60-A79,M,1,0,2020/03/22 00:00:00,3101,"24.09.2020, 00:00 Uhr",0,-9,2020/03/15 00:00:00,0,1,1,Nicht übermittelt,,,53
37853910,3,Niedersachsen,SK Braunschweig,A60-A79,M,1,0,2020/03/22 00:00:00,3101,"24.09.2020, 00:00 Uhr",0,-9,2020/03/18 00:00:00,0,1,1,Nicht übermittelt,,,54
37853948,3,Niedersachsen,SK Braunschweig,A60-A79,W,2,0,2020/03/22 00:00:00,3101,"24.09.2020, 00:00 Uhr",0,-9,2020/03/18 00:00:00,0,2,1,Nicht übermittelt,,,56
37853692,3,Niedersachsen,SK Braunschweig,A15-A34,W,1,0,2020/03/23 00:00:00,3101,"24.09.2020, 00:00 Uhr",0,-9,2020/03/17 00:00:00,0,1,1,Nicht übermittelt,,,57
37853985,3,Niedersachsen,SK Braunschweig,A80+,M,1,0,2020/03/23 00:00:00,3101,"24.09.2020, 00:00 Uhr",0,-9,2020/03/21 00:00:00,0,1,1,Nicht übermittelt,,,58
37853609,3,Niedersachsen,SK Braunschweig,A00-A04,M,1,0,2020/03/24 00:00:00,3101,"24.09.2020, 00:00 Uhr",0,-9,2020/03/16 00:00:00,0,1,1,Nicht übermittelt,,,59
37853630,3,Niedersachsen,SK Braunschweig,A15-A34,M,1,0,2020/03/24 00:00:00,3101,"24.09.2020, 00:00 Uhr",0,-9,2020/03/14 00:00:00,0,1,1,Nicht übermittelt,,,60
37853631,3,Niedersachsen,SK Braunschweig,A15-A34,M,1,0,2020/03/24 00:00:00,3101,"24.09.2020, 00:00 Uhr",0,-9,2020/03/16 00:00:00,0,1,1,Nicht übermittelt,,,61
37853632,3,Niedersachsen,SK Braunschweig,A15-A34,M,1,0,2020/03/24 00:00:00,3101,"24.09.2020, 00:00 Uhr",0,-9,2020/03/17 00:00:00,0,1,1,Nicht übermittelt,,,62
37853693,3,Niedersachsen,SK Braunschweig,A15-A34,W,1,0,2020/03/24 00:00:00,3101,"24.09.2020, 00:00 Uhr",0,-9,2020/03/14 00:00:00,0,1,1,Nicht übermittelt,,,63
37853694,3,Niedersachsen,SK Braunschweig,A15-A34,W,1,0,2020/03/24 00:00:00,3101,"24.09.2020, 00:00 Uhr",0,-9,2020/03/16 00:00:00,0,1,1,Nicht übermittelt,,,64
37853695,3,Niedersachsen,SK Braunschweig,A15-A34,W,2,0,2020/03/24 00:00:00,3101,"24.09.2020, 00:00 Uhr",0,-9,2020/03/17 00:00:00,0,2,1,Nicht übermittelt,,,66
37853696,3,Niedersachsen,SK Braunschweig,A15-A34,W,1,0,2020/03/24 00:00:00,3101,"24.09.2020, 00:00 Uhr",0,-9,2020/03/19 00:00:00,0,1,1,Nicht übermittelt,,,67
37853756,3,Niedersachsen,SK Braunschweig,A35-A59,M,1,0,2020/03/24 00:00:00,3101,"24.09.2020, 00:00 Uhr",0,-9,2020/03/16 00:00:00,0,1,1,Nicht übermittelt,,,68
37853836,3,Niedersachsen,SK Braunschweig,A35-A59,W,1,0,2020/03/24 00:00:00,3101,"24.09.2020, 00:00 Uhr",0,-9,2020/03/14 00:00:00,0,1,1,Nicht übermittelt,,,69
37853837,3,Niedersachsen,SK Braunschweig,A35-A59,W,1,0,2020/03/24 00:00:00,3101,"24.09.2020, 00:00 Uhr",0,-9,2020/03/22 00:00:00,0,1,1,Nicht übermittelt,,,70
37853911,3,Niedersachsen,SK Braunschweig,A60-A79,M,1,0,2020/03/24 00:00:00,3101,"24.09.2020, 00:00 Uhr",0,-9,2020/03/20 00:00:00,0,1,1,Nicht übermittelt,,,71
37853949,3,Niedersachsen,SK Braunschweig,A60-A79,W,1,0,2020/03/24 00:00:00,3101,"24.09.2020, 00:00 Uhr",0,-9,2020/03/12 00:00:00,0,1,1,Nicht übermittelt,,,72
37853950,3,Niedersachsen,SK Braunschweig,A60-A79,W,1,0,2020/03/24 00:00:00,3101,"24.09.2020, 00:00 Uhr",0,-9,2020/03/13 00:00:00,0,1,1,Nicht übermittelt,,,73
37853951,3,Niedersachsen,SK Braunschweig,A60-A79,W,1,0,2020/03/24 00:00:00,3101,"24.09.2020, 00:00 Uhr",0,-9,2020/03/18 00:00:00,0,1,1,Nicht übermittelt,,,74
37853615,3,Niedersachsen,SK Braunschweig,A05-A14,M,1,0,2020/03/25 00:00:00,3101,"24.09.2020, 00:00 Uhr",0,-9,2020/03/18 00:00:00,0,1,1,Nicht übermittelt,,,75
37853697,3,Niedersachsen,SK Braunschweig,A15-A34,W,1,0,2020/03/25 00:00:00,3101,"24.09.2020, 00:00 Uhr",0,-9,2020/03/14 00:00:00,0,1,1,Nicht übermittelt,,,76
37853698,3,Niedersachsen,SK Braunschweig,A15-A34,W,2,0,2020/03/25 00:00:00,3101,"24.09.2020, 00:00 Uhr",0,-9,2020/03/17 00:00:00,0,2,1,Nicht übermittelt,,,78
37853757,3,Niedersachsen,SK Braunschweig,A35-A59,M,1,0,2020/03/25 00:00:00,3101,"24.09.2020, 00:00 Uhr",0,-9,2020/03/17 00:00:00,0,1,1,Nicht übermittelt,,,79
37853838,3,Niedersachsen,SK Braunschweig,A35-A59,W,1,0,2020/03/25 00:00:00,3101,"24.09.2020, 00:00 Uhr",0,-9,2020/03/19 00:00:00,0,1,1,Nicht übermittelt,,,80
37853633,3,Niedersachsen,SK Braunschweig,A15-A34,M,1,0,2020/03/26 00:00:00,3101,"24.09.2020, 00:00 Uhr",0,-9,2020/03/19 00:00:00,0,1,1,Nicht übermittelt,,,81
37853699,3,Niedersachsen,SK Braunschweig,A15-A34,W,1,0,2020/03/26 00:00:00,3101,"24.09.2020, 00:00 Uhr",0,-9,2020/03/16 00:00:00,0,1,1,Nicht übermittelt,,,82
37853700,3,Niedersachsen,SK Braunschweig,A15-A34,W,1,0,2020/03/26 00:00:00,3101,"24.09.2020, 00:00 Uhr",0,-9,2020/03/19 00:00:00,0,1,1,Nicht übermittelt,,,83
37853701,3,Niedersachsen,SK Braunschweig,A15-A34,W,1,0,2020/03/26 00:00:00,3101,"24.09.2020, 00:00 Uhr",0,-9,2020/03/21 00:00:00,0,1,1,Nicht übermittelt,,,84
37853702,3,Niedersachsen,SK Braunschweig,A15-A34,W,1,0,2020/03/26 00:00:00,3101,"24.09.2020, 00:00 Uhr",0,-9,2020/03/22 00:00:00,0,1,1,Nicht übermittelt,,,85
37853758,3,Niedersachsen,SK Braunschweig,A35-A59,M,2,0,2020/03/26 00:00:00,3101,"24.09.2020, 00:00 Uhr",0,-9,2020/03/26 00:00:00,0,2,0,Nicht übermittelt,,,87
37853839,3,Niedersachsen,SK Braunschweig,A35-A59,W,1,0,2020/03/26 00:00:00,3101,"24.09.2020, 00:00 Uhr",0,-9,2020/03/20 00:00:00,0,1,1,Nicht übermittelt,,,88
37853840,3,Niedersachsen,SK Braunschweig,A35-A59,W,1,0,2020/03/26 00:00:00,3101,"24.09.2020, 00:00 Uhr",0,-9,2020/03/23 00:00:00,0,1,1,Nicht übermittelt,,,89
37853912,3,Niedersachsen,SK Braunschweig,A60-A79,M,1,1,2020/03/26 00:00:00,3101,"24.09.2020, 00:00 Uhr",0,0,2020/03/17 00:00:00,-9,0,1,Nicht übermittelt,,,90
37853913,3,Niedersachsen,SK Braunschweig,A60-A79,M,1,0,2020/03/26 00:00:00,3101,"24.09.2020, 00:00 Uhr",0,-9,2020/03/22 00:00:00,0,1,1,Nicht übermittelt,,,91
37853952,3,Niedersachsen,SK Braunschweig,A60-A79,W,1,0,2020/03/26 00:00:00,3101,"24.09.2020, 00:00 Uhr",0,-9,2020/03/21 00:00:00,0,1,1,Nicht übermittelt,,,92
37853953,3,Niedersachsen,SK Braunschweig,A60-A79,W,1,0,2020/03/26 00:00:00,3101,"24.09.2020, 00:00 Uhr",0,-9,2020/03/22 00:00:00,0,1,1,Nicht übermittelt,,,93
37853998,3,Niedersachsen,SK Braunschweig,A80+,W,1,0,2020/03/26 00:00:00,3101,"24.09.2020, 00:00 Uhr",0,-9,2020/03/24 00:00:00,0,1,1,Nicht übermittelt,,,94
37853634,3,Niedersachsen,SK Braunschweig,A15-A34,M,1,0,2020/03/27 00:00:00,3101,"24.09.2020, 00:00 Uhr",0,-9,2020/03/15 00:00:00,0,1,1,Nicht übermittelt,,,95
37853635,3,Niedersachsen,SK Braunschweig,A15-A34,M,1,0,2020/03/27 00:00:00,3101,"24.09.2020, 00:00 Uhr",0,-9,2020/03/20 00:00:00,0,1,1,Nicht übermittelt,,,96
37853636,3,Niedersachsen,SK Braunschweig,A15-A34,M,1,0,2020/03/27 00:00:00,3101,"24.09.2020, 00:00 Uhr",0,-9,2020/03/26 00:00:00,0,1,1,Nicht übermittelt,,,97
37853703,3,Niedersachsen,SK Braunschweig,A15-A34,W,1,0,2020/03/27 00:00:00,3101,"24.09.2020, 00:00 Uhr",0,-9,2020/03/24 00:00:00,0,1,1,Nicht übermittelt,,,98
37853704,3,Niedersachsen,SK Braunschweig,A15-A34,W,1,0,2020/03/27 00:00:00,3101,"24.09.2020, 00:00 Uhr",0,-9,2020/03/25 00:00:00,0,1,1,Nicht übermittelt,,,99
37853759,3,Niedersachsen,SK Braunschweig,A35-A59,M,1,0,2020/03/27 00:00:00,3101,"24.09.2020, 00:00 Uhr",0,-9,2020/03/12 00:00:00,0,1,1,Nicht übermittelt,,,100
37853760,3,Niedersachsen,SK Braunschweig,A35-A59,M,1,0,2020/03/27 00:00:00,3101,"24.09.2020, 00:00 Uhr",0,-9,2020/03/15 00:00:00,0,1,1,Nicht übermittelt,,,101
37853761,3,Niedersachsen,SK Braunschweig,A35-A59,M,1,0,2020/03/27 00:00:00,3101,"24.09.2020, 00:00 Uhr",0,-9,2020/03/18 00:00:00,0,1,1,Nicht übermittelt,,,102
37853762,3,Niedersachsen,SK Braunschweig,A35-A59,M,1,0,2020/03/27 00:00:00,3101,"24.09.2020, 00:00 Uhr",0,-9,2020/03/24 00:00:00,0,1,1,Nicht übermittelt,,,103
37853841,3,Niedersachsen,SK Braunschweig,A35-A59,W,1,0,2020/03/27 00:00:00,3101,"24.09.2020, 00:00 Uhr",0,-9,2020/03/08 00:00:00,0,1,1,Nicht übermittelt,,,104
37853842,3,Niedersachsen,SK Braunschweig,A35-A59,W,1,0,2020/03/27 00:00:00,3101,"24.09.2020, 00:00 Uhr",0,-9,2020/03/14 00:00:00,0,1,1,Nicht übermittelt,,,105
37853843,3,Niedersachsen,SK Braunschweig,A35-A59,W,1,0,2020/03/27 00:00:00,3101,"24.09.2020, 00:00 Uhr",0,-9,2020/03/19 00:00:00,0,1,1,Nicht übermittelt,,,106
37853844,3,Niedersachsen,SK Braunschweig,A35-A59,W,1,0,2020/03/27 00:00:00,3101,"24.09.2020, 00:00 Uhr",0,-9,2020/03/20 00:00:00,0,1,1,Nicht übermittelt,,,107
37853954,3,Niedersachsen,SK Braunschweig,A60-A79,W,1,0,2020/03/27 00:00:00,3101,"24.09.2020, 00:00 Uhr",0,-9,2020/03/15 00:00:00,0,1,1,Nicht übermittelt,,,108
37853955,3,Niedersachsen,SK Braunschweig,A60-A79,W,1,0,2020/03/27 00:00:00,3101,"24.09.2020, 00:00 Uhr",0,-9,2020/03/17 00:00:00,0,1,1,Nicht übermittelt,,,109
37853637,3,Niedersachsen,SK Braunschweig,A15-A34,M,1,0,2020/03/28 00:00:00,3101,"24.09.2020, 00:00 Uhr",0,-9,2020/03/17 00:00:00,0,1,1,Nicht übermittelt,,,110
37853638,3,Niedersachsen,SK Braunschweig,A15-A34,M,1,0,2020/03/28 00:00:00,3101,"24.09.2020, 00:00 Uhr",0,-9,2020/03/23 00:00:00,0,1,1,Nicht übermittelt,,,111
37853639,3,Niedersachsen,SK Braunschweig,A15-A34,M,1,0,2020/03/28 00:00:00,3101,"24.09.2020, 00:00 Uhr",0,-9,2020/03/24 00:00:00,0,1,1,Nicht übermittelt,,,112
37853640,3,Niedersachsen,SK Braunschweig,A15-A34,M,1,0,2020/03/28 00:00:00,3101,"24.09.2020, 00:00 Uhr",0,-9,2020/03/26 00:00:00,0,1,1,Nicht übermittelt,,,113
37853641,3,Niedersachsen,SK Braunschweig,A15-A34,M,1,0,2020/03/28 00:00:00,3101,"24.09.2020, 00:00 Uhr",0,-9,2020/03/27 00:00:00,0,1,1,Nicht übermittelt,,,114
37853705,3,Niedersachsen,SK Braunschweig,A15-A34,W,1,0,2020/03/28 00:00:00,3101,"24.09.2020, 00:00 Uhr",0,-9,2020/03/18 00:00:00,0,1,1,Nicht übermittelt,,,115
37853706,3,Niedersachsen,SK Braunschweig,A15-A34,W,1,0,2020/03/28 00:00:00,3101,"24.09.2020, 00:00 Uhr",0,-9,2020/03/21 00:00:00,0,1,1,Nicht übermittelt,,,116
37853707,3,Niedersachsen,SK Braunschweig,A15-A34,W,1,0,2020/03/28 00:00:00,3101,"24.09.2020, 00:00 Uhr",0,-9,2020/03/26 00:00:00,0,1,1,Nicht übermittelt,,,117
37853763,3,Niedersachsen,SK Braunschweig,A35-A59,M,1,0,2020/03/28 00:00:00,3101,"24.09.2020, 00:00 Uhr",0,-9,2020/03/15 00:00:00,0,1,1,Nicht übermittelt,,,118
37853764,3,Niedersachsen,SK Braunschweig,A35-A59,M,1,0,2020/03/28 00:00:00,3101,"24.09.2020, 00:00 Uhr",0,-9,2020/03/21 00:00:00,0,1,1,Nicht übermittelt,,,119
37853845,3,Niedersachsen,SK Braunschweig,A35-A59,W,1,0,2020/03/28 00:00:00,3101,"24.09.2020, 00:00 Uhr",0,-9,2020/03/13 00:00:00,0,1,1,Nicht übermittelt,,,120
37853846,3,Niedersachsen,SK Braunschweig,A35-A59,W,2,0,2020/03/28 00:00:00,3101,"24.09.2020, 00:00 Uhr",0,-9,2020/03/15 00:00:00,0,2,1,Nicht übermittelt,,,122
37853847,3,Niedersachsen,SK Braunschweig,A35-A59,W,1,0,2020/03/28 00:00:00,3101,"24.09.2020, 00:00 Uhr",0,-9,2020/03/16 00:00:00,0,1,1,Nicht übermittelt,,,123
37853848,3,Niedersachsen,SK Braunschweig,A35-A59,W,3,0,2020/03/28 00:00:00,3101,"24.09.2020, 00:00 Uhr",0,-9,2020/03/18 00:00:00,0,3,1,Nicht übermittelt,,,126
37853849,3,Niedersachsen,SK Braunschweig,A35-A59,W,1,0,2020/03/28 00:00:00,3101,"24.09.2020, 00:00 Uhr",0,-9,2020/03/19 00:00:00,0,1,1,Nicht übermittelt,,,127
37853850,3,Niedersachsen,SK Braunschweig,A35-A59,W,1,0,2020/03/28 00:00:00,3101,"24.09.2020, 00:00 Uhr",0,-9,2020/03/25 00:00:00,0,1,1,Nicht übermittelt,,,128
37853851,3,Niedersachsen,SK Braunschweig,A35-A59,W,1,0,2020/03/28 00:00:00,3101,"24.09.2020, 00:00 Uhr",0,-9,2020/03/28 00:00:00,0,1,0,Nicht übermittelt,,,129
37853914,3,Niedersachsen,SK Braunschweig,A60-A79,M,1,0,2020/03/28 00:00:00,3101,"24.09.2020, 00:00 Uhr",0,-9,2020/03/13 00:00:00,0,1,1,Nicht übermittelt,,,130
37853915,3,Niedersachsen,SK Braunschweig,A60-A79,M,1,0,2020/03/28 00:00:00,3101,"24.09.2020, 00:00 Uhr",0,-9,2020/03/14 00:00:00,0,1,1,Nicht übermittelt,,,131
37853916,3,Niedersachsen,SK Braunschweig,A60-A79,M,1,1,2020/03/28 00:00:00,3101,"24.09.2020, 00:00 Uhr",0,0,2020/03/27 00:00:00,-9,0,1,Nicht übermittelt,,,132
37853917,3,Niedersachsen,SK Braunschweig,A60-A79,M,1,1,2020/03/28 00:00:00,3101,"24.09.2020, 00:00 Uhr",0,0,2020/03/28 00:00:00,-9,0,1,Nicht übermittelt,,,133
37853956,3,Niedersachsen,SK Braunschweig,A60-A79,W,1,0,2020/03/28 00:00:00,3101,"24.09.2020, 00:00 Uhr",0,-9,2020/03/09 00:00:00,0,1,1,Nicht übermittelt,,,134
37853957,3,Niedersachsen,SK Braunschweig,A60-A79,W,1,0,2020/03/28 00:00:00,3101,"24.09.2020, 00:00 Uhr",0,-9,2020/03/19 00:00:00,0,1,1,Nicht übermittelt,,,135
37853958,3,Niedersachsen,SK Braunschweig,A60-A79,W,1,0,2020/03/28 00:00:00,3101,"24.09.2020, 00:00 Uhr",0,-9,2020/03/23 00:00:00,0,1,1,Nicht übermittelt,,,136
37853986,3,Niedersachsen,SK Braunschweig,A80+,M,1,0,2020/03/28 00:00:00,3101,"24.09.2020, 00:00 Uhr",0,-9,2020/03/20 00:00:00,0,1,1,Nicht übermittelt,,,137
37853999,3,Niedersachsen,SK Braunschweig,A80+,W,1,0,2020/03/28 00:00:00,3101,"24.09.2020, 00:00 Uhr",0,-9,2020/03/26 00:00:00,0,1,1,Nicht übermittelt,,,138
37853708,3,Niedersachsen,SK Braunschweig,A15-A34,W,1,0,2020/03/29 00:00:00,3101,"24.09.2020, 00:00 Uhr",0,-9,2020/03/27 00:00:00,0,1,1,Nicht übermittelt,,,139
37853765,3,Niedersachsen,SK Braunschweig,A35-A59,M,1,0,2020/03/29 00:00:00,3101,"24.09.2020, 00:00 Uhr",0,-9,2020/03/16 00:00:00,0,1,1,Nicht übermittelt,,,140
37853918,3,Niedersachsen,SK Braunschweig,A60-A79,M,1,0,2020/03/29 00:00:00,3101,"24.09.2020, 00:00 Uhr",0,-9,2020/03/23 00:00:00,0,1,1,Nicht übermittelt,,,141
37853919,3,Niedersachsen,SK Braunschweig,A60-A79,M,1,1,2020/03/29 00:00:00,3101,"24.09.2020, 00:00 Uhr",0,0,2020/03/29 00:00:00,-9,0,1,Nicht übermittelt,,,142
37853920,3,Niedersachsen,SK Braunschweig,A60-A79,M,1,0,2020/03/29 00:00:00,3101,"24.09.2020, 00:00 Uhr",0,-9,2020/03/29 00:00:00,0,1,0,Nicht übermittelt,,,143
37853959,3,Niedersachsen,SK Braunschweig,A60-A79,W,1,0,2020/03/29 00:00:00,3101,"24.09.2020, 00:00 Uhr",0,-9,2020/03/26 00:00:00,0,1,1,Nicht übermittelt,,,144
37853766,3,Niedersachsen,SK Braunschweig,A35-A59,M,1,0,2020/03/30 00:00:00,3101,"24.09.2020, 00:00 Uhr",0,-9,2020/03/20 00:00:00,0,1,1,Nicht übermittelt,,,145
37853767,3,Niedersachsen,SK Braunschweig,A35-A59,M,1,0,2020/03/30 00:00:00,3101,"24.09.2020, 00:00 Uhr",0,-9,2020/03/30 00:00:00,0,1,0,Nicht übermittelt,,,146
37853960,3,Niedersachsen,SK Braunschweig,A60-A79,W,1,1,2020/03/30 00:00:00,3101,"24.09.2020, 00:00 Uhr",0,0,2020/03/25 00:00:00,-9,0,1,Nicht übermittelt,,,147
37853613,3,Niedersachsen,SK Braunschweig,A00-A04,W,1,0,2020/03/31 00:00:00,3101,"24.09.2020, 00:00 Uhr",0,-9,2020/03/30 00:00:00,0,1,1,Nicht übermittelt,,,148
37853616,3,Niedersachsen,SK Braunschweig,A05-A14,M,1,0,2020/03/31 00:00:00,3101,"24.09.2020, 00:00 Uhr",0,-9,2020/03/31 00:00:00,0,1,0,Nicht übermittelt,,,149
37853642,3,Niedersachsen,SK Braunschweig,A15-A34,M,1,0,2020/03/31 00:00:00,3101,"24.09.2020, 00:00 Uhr",0,-9,2020/03/20 00:00:00,0,1,1,Nicht übermittelt,,,150
37853643,3,Niedersachsen,SK Braunschweig,A15-A34,M,1,0,2020/03/31 00:00:00,3101,"24.09.2020, 00:00 Uhr",0,-9,2020/03/25 00:00:00,0,1,1,Nicht übermittelt,,,151
37853709,3,Niedersachsen,SK Braunschweig,A15-A34,W,1,0,2020/03/31 00:00:00,3101,"24.09.2020, 00:00 Uhr",0,-9,2020/03/20 00:00:00,0,1,1,Nicht übermittelt,,,152
37853710,3,Niedersachsen,SK Braunschweig,A15-A34,W,1,0,2020/03/31 00:00:00,3101,"24.09.2020, 00:00 Uhr",0,-9,2020/03/22 00:00:00,0,1,1,Nicht übermittelt,,,153
37853711,3,Niedersachsen,SK Braunschweig,A15-A34,W,1,0,2020/03/31 00:00:00,3101,"24.09.2020, 00:00 Uhr",0,-9,2020/03/26 00:00:00,0,1,1,Nicht übermittelt,,,154
37853712,3,Niedersachsen,SK Braunschweig,A15-A34,W,2,0,2020/03/31 00:00:00,3101,"24.09.2020, 00:00 Uhr",0,-9,2020/03/30 00:00:00,0,2,1,Nicht übermittelt,,,156
37853713,3,Niedersachsen,SK Braunschweig,A15-A34,W,1,0,2020/03/31 00:00:00,3101,"24.09.2020, 00:00 Uhr",0,-9,2020/03/31 00:00:00,0,1,0,Nicht übermittelt,,,157
37853768,3,Niedersachsen,SK Braunschweig,A35-A59,M,1,0,2020/03/31 00:00:00,3101,"24.09.2020, 00:00 Uhr",0,-9,2020/03/25 00:00:00,0,1,1,Nicht übermittelt,,,158
37853769,3,Niedersachsen,SK Braunschweig,A35-A59,M,1,0,2020/03/31 00:00:00,3101,"24.09.2020, 00:00 Uhr",0,-9,2020/03/27 00:00:00,0,1,1,Nicht übermittelt,,,159
37853770,3,Niedersachsen,SK Braunschweig,A35-A59,M,1,0,2020/03/31 00:00:00,3101,"24.09.2020, 00:00 Uhr",0,-9,2020/03/31 00:00:00,0,1,0,Nicht übermittelt,,,160
37853852,3,Niedersachsen,SK Braunschweig,A35-A59,W,1,0,2020/03/31 00:00:00,3101,"24.09.2020, 00:00 Uhr",0,-9,2020/03/20 00:00:00,0,1,1,Nicht übermittelt,,,161
37853853,3,Niedersachsen,SK Braunschweig,A35-A59,W,1,0,2020/03/31 00:00:00,3101,"24.09.2020, 00:00 Uhr",0,-9,2020/03/23 00:00:00,0,1,1,Nicht übermittelt,,,162
37853854,3,Niedersachsen,SK Braunschweig,A35-A59,W,1,0,2020/03/31 00:00:00,3101,"24.09.2020, 00:00 Uhr",0,-9,2020/03/25 00:00:00,0,1,1,Nicht übermittelt,,,163
37853855,3,Niedersachsen,SK Braunschweig,A35-A59,W,1,0,2020/03/31 00:00:00,3101,"24.09.2020, 00:00 Uhr",0,-9,2020/03/28 00:00:00,0,1,1,Nicht übermittelt,,,164
37853921,3,Niedersachsen,SK Braunschweig,A60-A79,M,1,0,2020/03/31 00:00:00,3101,"24.09.2020, 00:00 Uhr",0,-9,2020/03/19 00:00:00,0,1,1,Nicht übermittelt,,,165
37853922,3,Niedersachsen,SK Braunschweig,A60-A79,M,1,0,2020/03/31 00:00:00,3101,"24.09.2020, 00:00 Uhr",0,-9,2020/03/24 00:00:00,0,1,1,Nicht übermittelt,,,166
37853961,3,Niedersachsen,SK Braunschweig,A60-A79,W,1,0,2020/03/31 00:00:00,3101,"24.09.2020, 00:00 Uhr",0,-9,2020/03/16 00:00:00,0,1,1,Nicht übermittelt,,,167
37853987,3,Niedersachsen,SK Braunschweig,A80+,M,1,1,2020/03/31 00:00:00,3101,"24.09.2020, 00:00 Uhr",0,0,2020/03/31 00:00:00,-9,0,0,Nicht übermittelt,,,168
37853644,3,Niedersachsen,SK Braunschweig,A15-A34,M,1,0,2020/04/01 00:00:00,3101,"24.09.2020, 00:00 Uhr",0,-9,2020/03/22 00:00:00,0,1,1,Nicht übermittelt,,,169
37853714,3,Niedersachsen,SK Braunschweig,A15-A34,W,1,0,2020/04/01 00:00:00,3101,"24.09.2020, 00:00 Uhr",0,-9,2020/03/21 00:00:00,0,1,1,Nicht übermittelt,,,170
37853771,3,Niedersachsen,SK Braunschweig,A35-A59,M,1,0,2020/04/01 00:00:00,3101,"24.09.2020, 00:00 Uhr",0,-9,2020/03/20 00:00:00,0,1,1,Nicht übermittelt,,,171
37853772,3,Niedersachsen,SK Braunschweig,A35-A59,M,2,0,2020/04/01 00:00:00,3101,"24.09.2020, 00:00 Uhr",0,-9,2020/03/21 00:00:00,0,2,1,Nicht übermittelt,,,173
37853856,3,Niedersachsen,SK Braunschweig,A35-A59,W,1,0,2020/04/01 00:00:00,3101,"24.09.2020, 00:00 Uhr",0,-9,2020/03/17 00:00:00,0,1,1,Nicht übermittelt,,,174
37853857,3,Niedersachsen,SK Braunschweig,A35-A59,W,1,0,2020/04/01 00:00:00,3101,"24.09.2020, 00:00 Uhr",0,-9,2020/03/19 00:00:00,0,1,1,Nicht übermittelt,,,175
37853858,3,Niedersachsen,SK Braunschweig,A35-A59,W,1,0,2020/04/01 00:00:00,3101,"24.09.2020, 00:00 Uhr",0,-9,2020/03/27 00:00:00,0,1,1,Nicht übermittelt,,,176
37853923,3,Niedersachsen,SK Braunschweig,A60-A79,M,1,0,2020/04/01 00:00:00,3101,"24.09.2020, 00:00 Uhr",0,-9,2020/03/20 00:00:00,0,1,1,Nicht übermittelt,,,177
37853924,3,Niedersachsen,SK Braunschweig,A60-A79,M,1,0,2020/04/01 00:00:00,3101,"24.09.2020, 00:00 Uhr",0,-9,2020/03/26 00:00:00,0,1,1,Nicht übermittelt,,,178
37853925,3,Niedersachsen,SK Braunschweig,A60-A79,M,1,0,2020/04/01 00:00:00,3101,"24.09.2020, 00:00 Uhr",0,-9,2020/03/30 00:00:00,0,1,1,Nicht übermittelt,,,179
37853962,3,Niedersachsen,SK Braunschweig,A60-A79,W,1,0,2020/04/01 00:00:00,3101,"24.09.2020, 00:00 Uhr",0,-9,2020/03/22 00:00:00,0,1,1,Nicht übermittelt,,,180
37853963,3,Niedersachsen,SK Braunschweig,A60-A79,W,1,0,2020/04/01 00:00:00,3101,"24.09.2020, 00:00 Uhr",0,-9,2020/03/27 00:00:00,0,1,1,Nicht übermittelt,,,181
37853964,3,Niedersachsen,SK Braunschweig,A60-A79,W,1,0,2020/04/01 00:00:00,3101,"24.09.2020, 00:00 Uhr",0,-9,2020/03/30 00:00:00,0,1,1,Nicht übermittelt,,,182
37853965,3,Niedersachsen,SK Braunschweig,A60-A79,W,1,0,2020/04/01 00:00:00,3101,"24.09.2020, 00:00 Uhr",0,-9,2020/03/31 00:00:00,0,1,1,Nicht übermittelt,,,183
37853988,3,Niedersachsen,SK Braunschweig,A80+,M,1,0,2020/04/01 00:00:00,3101,"24.09.2020, 00:00 Uhr",0,-9,2020/03/14 00:00:00,0,1,1,Nicht übermittelt,,,184
37854000,3,Niedersachsen,SK Braunschweig,A80+,W,1,1,2020/04/01 00:00:00,3101,"24.09.2020, 00:00 Uhr",0,0,2020/03/26 00:00:00,-9,0,1,Nicht übermittelt,,,185
37854001,3,Niedersachsen,SK Braunschweig,A80+,W,1,0,2020/04/01 00:00:00,3101,"24.09.2020, 00:00 Uhr",0,-9,2020/03/30 00:00:00,0,1,1,Nicht übermittelt,,,186
37853610,3,Niedersachsen,SK Braunschweig,A00-A04,M,2,0,2020/04/02 00:00:00,3101,"24.09.2020, 00:00 Uhr",0,-9,2020/03/29 00:00:00,0,2,1,Nicht übermittelt,,,188
37853617,3,Niedersachsen,SK Braunschweig,A05-A14,M,1,0,2020/04/02 00:00:00,3101,"24.09.2020, 00:00 Uhr",0,-9,2020/03/17 00:00:00,0,1,1,Nicht übermittelt,,,189
37853715,3,Niedersachsen,SK Braunschweig,A15-A34,W,1,0,2020/04/02 00:00:00,3101,"24.09.2020, 00:00 Uhr",0,-9,2020/03/25 00:00:00,0,1,1,Nicht übermittelt,,,190
37853773,3,Niedersachsen,SK Braunschweig,A35-A59,M,2,0,2020/04/02 00:00:00,3101,"24.09.2020, 00:00 Uhr",0,-9,2020/03/18 00:00:00,0,2,1,Nicht übermittelt,,,192
37853774,3,Niedersachsen,SK Braunschweig,A35-A59,M,1,0,2020/04/02 00:00:00,3101,"24.09.2020, 00:00 Uhr",0,-9,2020/03/19 00:00:00,0,1,1,Nicht übermittelt,,,193
37853775,3,Niedersachsen,SK Braunschweig,A35-A59,M,1,0,2020/04/02 00:00:00,3101,"24.09.2020, 00:00 Uhr",0,-9,2020/03/23 00:00:00,0,1,1,Nicht übermittelt,,,194
37853776,3,Niedersachsen,SK Braunschweig,A35-A59,M,1,0,2020/04/02 00:00:00,3101,"24.09.2020, 00:00 Uhr",0,-9,2020/03/31 00:00:00,0,1,1,Nicht übermittelt,,,195
37853777,3,Niedersachsen,SK Braunschweig,A35-A59,M,1,0,2020/04/02 00:00:00,3101,"24.09.2020, 00:00 Uhr",0,-9,2020/04/02 00:00:00,0,1,0,Nicht übermittelt,,,196
37853859,3,Niedersachsen,SK Braunschweig,A35-A59,W,1,0,2020/04/02 00:00:00,3101,"24.09.2020, 00:00 Uhr",0,-9,2020/03/15 00:00:00,0,1,1,Nicht übermittelt,,,197
37853860,3,Niedersachsen,SK Braunschweig,A35-A59,W,1,0,2020/04/02 00:00:00,3101,"24.09.2020, 00:00 Uhr",0,-9,2020/03/20 00:00:00,0,1,1,Nicht übermittelt,,,198
37853861,3,Niedersachsen,SK Braunschweig,A35-A59,W,1,0,2020/04/02 00:00:00,3101,"24.09.2020, 00:00 Uhr",0,-9,2020/03/23 00:00:00,0,1,1,Nicht übermittelt,,,199
37853862,3,Niedersachsen,SK Braunschweig,A35-A59,W,2,0,2020/04/02 00:00:00,3101,"24.09.2020, 00:00 Uhr",0,-9,2020/03/28 00:00:00,0,2,1,Nicht übermittelt,,,201
37853926,3,Niedersachsen,SK Braunschweig,A60-A79,M,1,0,2020/04/02 00:00:00,3101,"24.09.2020, 00:00 Uhr",0,-9,2020/03/31 00:00:00,0,1,1,Nicht übermittelt,,,202
37853927,3,Niedersachsen,SK Braunschweig,A60-A79,M,1,1,2020/04/02 00:00:00,3101,"24.09.2020, 00:00 Uhr",0,0,2020/04/01 00:00:00,-9,0,1,Nicht übermittelt,,,203
37853966,3,Niedersachsen,SK Braunschweig,A60-A79,W,1,0,2020/04/02 00:00:00,3101,"24.09.2020, 00:00 Uhr",0,-9,2020/03/13 00:00:00,0,1,1,Nicht übermittelt,,,204
37853967,3,Niedersachsen,SK Braunschweig,A60-A79,W,2,0,2020/04/02 00:00:00,3101,"24.09.2020, 00:00 Uhr",0,-9,2020/03/19 00:00:00,0,2,1,Nicht übermittelt,,,206
37853968,3,Niedersachsen,SK Braunschweig,A60-A79,W,2,0,2020/04/02 00:00:00,3101,"24.09.2020, 00:00 Uhr",0,-9,2020/03/25 00:00:00,0,2,1,Nicht übermittelt,,,208
37854002,3,Niedersachsen,SK Braunschweig,A80+,W,1,1,2020/04/02 00:00:00,3101,"24.09.2020, 00:00 Uhr",0,0,2020/04/01 00:00:00,-9,0,1,Nicht übermittelt,,,209
37853716,3,Niedersachsen,SK Braunschweig,A15-A34,W,1,0,2020/04/03 00:00:00,3101,"24.09.2020, 00:00 Uhr",0,-9,2020/04/01 00:00:00,0,1,1,Nicht übermittelt,,,210
37853778,3,Niedersachsen,SK Braunschweig,A35-A59,M,1,0,2020/04/03 00:00:00,3101,"24.09.2020, 00:00 Uhr",0,-9,2020/03/26 00:00:00,0,1,1,Nicht übermittelt,,,211
37853779,3,Niedersachsen,SK Braunschweig,A35-A59,M,1,0,2020/04/03 00:00:00,3101,"24.09.2020, 00:00 Uhr",0,-9,2020/03/29 00:00:00,0,1,1,Nicht übermittelt,,,212
37853863,3,Niedersachsen,SK Braunschweig,A35-A59,W,1,0,2020/04/03 00:00:00,3101,"24.09.2020, 00:00 Uhr",0,-9,2020/03/23 00:00:00,0,1,1,Nicht übermittelt,,,213
37853864,3,Niedersachsen,SK Braunschweig,A35-A59,W,1,0,2020/04/03 00:00:00,3101,"24.09.2020, 00:00 Uhr",0,-9,2020/03/27 00:00:00,0,1,1,Nicht übermittelt,,,214
37853865,3,Niedersachsen,SK Braunschweig,A35-A59,W,1,0,2020/04/03 00:00:00,3101,"24.09.2020, 00:00 Uhr",0,-9,2020/03/30 00:00:00,0,1,1,Nicht übermittelt,,,215
37853928,3,Niedersachsen,SK Braunschweig,A60-A79,M,1,0,2020/04/03 00:00:00,3101,"24.09.2020, 00:00 Uhr",0,-9,2020/03/24 00:00:00,0,1,1,Nicht übermittelt,,,216
37853929,3,Niedersachsen,SK Braunschweig,A60-A79,M,2,0,2020/04/03 00:00:00,3101,"24.09.2020, 00:00 Uhr",0,-9,2020/03/28 00:00:00,0,2,1,Nicht übermittelt,,,218
37853930,3,Niedersachsen,SK Braunschweig,A60-A79,M,1,0,2020/04/03 00:00:00,3101,"24.09.2020, 00:00 Uhr",0,-9,2020/03/29 00:00:00,0,1,1,Nicht übermittelt,,,219
37853618,3,Niedersachsen,SK Braunschweig,A05-A14,M,1,0,2020/04/04 00:00:00,3101,"24.09.2020, 00:00 Uhr",0,-9,2020/03/30 00:00:00,0,1,1,Nicht übermittelt,,,220
37853780,3,Niedersachsen,SK Braunschweig,A35-A59,M,1,0,2020/04/04 00:00:00,3101,"24.09.2020, 00:00 Uhr",0,-9,2020/03/19 00:00:00,0,1,1,Nicht übermittelt,,,221
37853931,3,Niedersachsen,SK Braunschweig,A60-A79,M,1,0,2020/04/04 00:00:00,3101,"24.09.2020, 00:00 Uhr",0,-9,2020/03/25 00:00:00,0,1,1,Nicht übermittelt,,,222
37853932,3,Niedersachsen,SK Braunschweig,A60-A79,M,1,0,2020/04/04 00:00:00,3101,"24.09.2020, 00:00 Uhr",0,-9,2020/03/30 00:00:00,0,1,1,Nicht übermittelt,,,223
37853969,3,Niedersachsen,SK Braunschweig,A60-A79,W,1,0,2020/04/04 00:00:00,3101,"24.09.2020, 00:00 Uhr",0,-9,2020/03/30 00:00:00,0,1,1,Nicht übermittelt,,,224
37853619,3,Niedersachsen,SK Braunschweig,A05-A14,M,1,0,2020/04/05 00:00:00,3101,"24.09.2020, 00:00 Uhr",0,-9,2020/03/23 00:00:00,0,1,1,Nicht übermittelt,,,225
37853866,3,Niedersachsen,SK Braunschweig,A35-A59,W,1,0,2020/04/05 00:00:00,3101,"24.09.2020, 00:00 Uhr",0,-9,2020/03/11 00:00:00,0,1,1,Nicht übermittelt,,,226
37853933,3,Niedersachsen,SK Braunschweig,A60-A79,M,1,1,2020/04/05 00:00:00,3101,"24.09.2020, 00:00 Uhr",0,0,2020/03/13 00:00:00,-9,0,1,Nicht übermittelt,,,227
37853970,3,Niedersachsen,SK Braunschweig,A60-A79,W,1,0,2020/04/05 00:00:00,3101,"24.09.2020, 00:00 Uhr",0,-9,2020/03/17 00:00:00,0,1,1,Nicht übermittelt,,,228
37853971,3,Niedersachsen,SK Braunschweig,A60-A79,W,1,0,2020/04/05 00:00:00,3101,"24.09.2020, 00:00 Uhr",0,-9,2020/04/02 00:00:00,0,1,1,Nicht übermittelt,,,229
37853989,3,Niedersachsen,SK Braunschweig,A80+,M,1,0,2020/04/05 00:00:00,3101,"24.09.2020, 00:00 Uhr",0,-9,2020/04/03 00:00:00,0,1,1,Nicht übermittelt,,,230
37853781,3,Niedersachsen,SK Braunschweig,A35-A59,M,1,0,2020/04/06 00:00:00,3101,"24.09.2020, 00:00 Uhr",0,-9,2020/03/27 00:00:00,0,1,1,Nicht übermittelt,,,231
37853990,3,Niedersachsen,SK Braunschweig,A80+,M,1,0,2020/04/06 00:00:00,3101,"24.09.2020, 00:00 Uhr",0,-9,2020/03/30 00:00:00,0,1,1,Nicht übermittelt,,,232
37853782,3,Niedersachsen,SK Braunschweig,A35-A59,M,1,0,2020/04/07 00:00:00,3101,"24.09.2020, 00:00 Uhr",0,-9,2020/03/27 00:00:00,0,1,1,Nicht übermittelt,,,233
37853783,3,Niedersachsen,SK Braunschweig,A35-A59,M,1,0,2020/04/07 00:00:00,3101,"24.09.2020, 00:00 Uhr",0,-9,2020/04/02 00:00:00,0,1,1,Nicht übermittelt,,,234
37853867,3,Niedersachsen,SK Braunschweig,A35-A59,W,1,0,2020/04/07 00:00:00,3101,"24.09.2020, 00:00 Uhr",0,-9,2020/04/03 00:00:00,0,1,1,Nicht übermittelt,,,235
37853868,3,Niedersachsen,SK Braunschweig,A35-A59,W,1,0,2020/04/07 00:00:00,3101,"24.09.2020, 00:00 Uhr",0,-9,2020/04/05 00:00:00,0,1,1,Nicht übermittelt,,,236
37853869,3,Niedersachsen,SK Braunschweig,A35-A59,W,1,0,2020/04/07 00:00:00,3101,"24.09.2020, 00:00 Uhr",0,-9,2020/04/06 00:00:00,0,1,1,Nicht übermittelt,,,237
37853972,3,Niedersachsen,SK Braunschweig,A60-A79,W,1,0,2020/04/07 00:00:00,3101,"24.09.2020, 00:00 Uhr",0,-9,2020/04/06 00:00:00,0,1,1,Nicht übermittelt,,,238
37854003,3,Niedersachsen,SK Braunschweig,A80+,W,1,0,2020/04/07 00:00:00,3101,"24.09.2020, 00:00 Uhr",0,-9,2020/04/05 00:00:00,0,1,1,Nicht übermittelt,,,239
37854004,3,Niedersachsen,SK Braunschweig,A80+,W,1,0,2020/04/07 00:00:00,3101,"24.09.2020, 00:00 Uhr",0,-9,2020/04/06 00:00:00,0,1,1,Nicht übermittelt,,,240
37854005,3,Niedersachsen,SK Braunschweig,A80+,W,1,1,2020/04/07 00:00:00,3101,"24.09.2020, 00:00 Uhr",0,0,2020/04/06 00:00:00,-9,0,1,Nicht übermittelt,,,241
37853784,3,Niedersachsen,SK Braunschweig,A35-A59,M,1,0,2020/04/08 00:00:00,3101,"24.09.2020, 00:00 Uhr",0,-9,2020/04/03 00:00:00,0,1,1,Nicht übermittelt,,,242
37853934,3,Niedersachsen,SK Braunschweig,A60-A79,M,1,0,2020/04/08 00:00:00,3101,"24.09.2020, 00:00 Uhr",0,-9,2020/04/05 00:00:00,0,1,1,Nicht übermittelt,,,243
37853973,3,Niedersachsen,SK Braunschweig,A60-A79,W,1,0,2020/04/08 00:00:00,3101,"24.09.2020, 00:00 Uhr",0,-9,2020/04/04 00:00:00,0,1,1,Nicht übermittelt,,,244
37853991,3,Niedersachsen,SK Braunschweig,A80+,M,1,1,2020/04/08 00:00:00,3101,"24.09.2020, 00:00 Uhr",0,0,2020/04/08 00:00:00,-9,0,0,Nicht übermittelt,,,245
37853624,3,Niedersachsen,SK Braunschweig,A05-A14,W,1,0,2020/04/09 00:00:00,3101,"24.09.2020, 00:00 Uhr",0,-9,2020/03/29 00:00:00,0,1,1,Nicht übermittelt,,,246
37853645,3,Niedersachsen,SK Braunschweig,A15-A34,M,1,0,2020/04/09 00:00:00,3101,"24.09.2020, 00:00 Uhr",0,-9,2020/04/02 00:00:00,0,1,1,Nicht übermittelt,,,247
37853717,3,Niedersachsen,SK Braunschweig,A15-A34,W,1,0,2020/04/09 00:00:00,3101,"24.09.2020, 00:00 Uhr",0,-9,2020/03/27 00:00:00,0,1,1,Nicht übermittelt,,,248
37853718,3,Niedersachsen,SK Braunschweig,A15-A34,W,1,0,2020/04/09 00:00:00,3101,"24.09.2020, 00:00 Uhr",0,-9,2020/04/07 00:00:00,0,1,1,Nicht übermittelt,,,249
37853719,3,Niedersachsen,SK Braunschweig,A15-A34,W,1,0,2020/04/09 00:00:00,3101,"24.09.2020, 00:00 Uhr",0,-9,2020/04/09 00:00:00,0,1,0,Nicht übermittelt,,,250
37853785,3,Niedersachsen,SK Braunschweig,A35-A59,M,1,0,2020/04/09 00:00:00,3101,"24.09.2020, 00:00 Uhr",0,-9,2020/04/04 00:00:00,0,1,1,Nicht übermittelt,,,251
37853786,3,Niedersachsen,SK Braunschweig,A35-A59,M,1,0,2020/04/09 00:00:00,3101,"24.09.2020, 00:00 Uhr",0,-9,2020/04/06 00:00:00,0,1,1,Nicht übermittelt,,,252
37853787,3,Niedersachsen,SK Braunschweig,A35-A59,M,1,0,2020/04/09 00:00:00,3101,"24.09.2020, 00:00 Uhr",0,-9,2020/04/08 00:00:00,0,1,1,Nicht übermittelt,,,253
37853870,3,Niedersachsen,SK Braunschweig,A35-A59,W,1,0,2020/04/09 00:00:00,3101,"24.09.2020, 00:00 Uhr",0,-9,2020/03/30 00:00:00,0,1,1,Nicht übermittelt,,,254
37853871,3,Niedersachsen,SK Braunschweig,A35-A59,W,1,0,2020/04/09 00:00:00,3101,"24.09.2020, 00:00 Uhr",0,-9,2020/04/08 00:00:00,0,1,1,Nicht übermittelt,,,255
37853872,3,Niedersachsen,SK Braunschweig,A35-A59,W,1,0,2020/04/09 00:00:00,3101,"24.09.2020, 00:00 Uhr",0,-9,2020/04/09 00:00:00,0,1,0,Nicht übermittelt,,,256
37853935,3,Niedersachsen,SK Braunschweig,A60-A79,M,1,0,2020/04/09 00:00:00,3101,"24.09.2020, 00:00 Uhr",0,-9,2020/03/29 00:00:00,0,1,1,Nicht übermittelt,,,257
37853936,3,Niedersachsen,SK Braunschweig,A60-A79,M,1,0,2020/04/09 00:00:00,3101,"24.09.2020, 00:00 Uhr",0,-9,2020/04/09 00:00:00,0,1,0,Nicht übermittelt,,,258
37853974,3,Niedersachsen,SK Braunschweig,A60-A79,W,1,0,2020/04/09 00:00:00,3101,"24.09.2020, 00:00 Uhr",0,-9,2020/03/29 00:00:00,0,1,1,Nicht übermittelt,,,259
37853975,3,Niedersachsen,SK Braunschweig,A60-A79,W,1,0,2020/04/09 00:00:00,3101,"24.09.2020, 00:00 Uhr",0,-9,2020/04/08 00:00:00,0,1,1,Nicht übermittelt,,,260
37853992,3,Niedersachsen,SK Braunschweig,A80+,M,1,0,2020/04/09 00:00:00,3101,"24.09.2020, 00:00 Uhr",0,-9,2020/04/09 00:00:00,0,1,0,Nicht übermittelt,,,261
37854006,3,Niedersachsen,SK Braunschweig,A80+,W,1,0,2020/04/09 00:00:00,3101,"24.09.2020, 00:00 Uhr",0,-9,2020/03/28 00:00:00,0,1,1,Nicht übermittelt,,,262
37854007,3,Niedersachsen,SK Braunschweig,A80+,W,1,0,2020/04/09 00:00:00,3101,"24.09.2020, 00:00 Uhr",0,-9,2020/04/08 00:00:00,0,1,1,Nicht übermittelt,,,263
37854008,3,Niedersachsen,SK Braunschweig,A80+,W,4,0,2020/04/09 00:00:00,3101,"24.09.2020, 00:00 Uhr",0,-9,2020/04/09 00:00:00,0,4,0,Nicht übermittelt,,,267
37854009,3,Niedersachsen,SK Braunschweig,A80+,W,1,1,2020/04/09 00:00:00,3101,"24.09.2020, 00:00 Uhr",0,0,2020/04/09 00:00:00,-9,0,0,Nicht übermittelt,,,268
37853646,3,Niedersachsen,SK Braunschweig,A15-A34,M,1,0,2020/04/10 00:00:00,3101,"24.09.2020, 00:00 Uhr",0,-9,2020/03/31 00:00:00,0,1,1,Nicht übermittelt,,,269
37853788,3,Niedersachsen,SK Braunschweig,A35-A59,M,1,0,2020/04/10 00:00:00,3101,"24.09.2020, 00:00 Uhr",0,-9,2020/04/02 00:00:00,0,1,1,Nicht übermittelt,,,270
37853789,3,Niedersachsen,SK Braunschweig,A35-A59,M,1,0,2020/04/10 00:00:00,3101,"24.09.2020, 00:00 Uhr",0,-9,2020/04/07 00:00:00,0,1,1,Nicht übermittelt,,,271
37853976,3,Niedersachsen,SK Braunschweig,A60-A79,W,1,0,2020/04/11 00:00:00,3101,"24.09.2020, 00:00 Uhr",0,-9,2020/03/30 00:00:00,0,1,1,Nicht übermittelt,,,272
37853790,3,Niedersachsen,SK Braunschweig,A35-A59,M,1,0,2020/04/12 00:00:00,3101,"24.09.2020, 00:00 Uhr",0,-9,2020/04/11 00:00:00,0,1,1,Nicht übermittelt,,,273
37853873,3,Niedersachsen,SK Braunschweig,A35-A59,W,1,0,2020/04/12 00:00:00,3101,"24.09.2020, 00:00 Uhr",0,-9,2020/04/06 00:00:00,0,1,1,Nicht übermittelt,,,274
37853620,3,Niedersachsen,SK Braunschweig,A05-A14,M,1,0,2020/04/13 00:00:00,3101,"24.09.2020, 00:00 Uhr",0,-9,2020/04/01 00:00:00,0,1,1,Nicht übermittelt,,,275
37853874,3,Niedersachsen,SK Braunschweig,A35-A59,W,1,0,2020/04/13 00:00:00,3101,"24.09.2020, 00:00 Uhr",0,-9,2020/04/12 00:00:00,0,1,1,Nicht übermittelt,,,276
37853647,3,Niedersachsen,SK Braunschweig,A15-A34,M,1,0,2020/04/14 00:00:00,3101,"24.09.2020, 00:00 Uhr",0,-9,2020/04/12 00:00:00,0,1,1,Nicht übermittelt,,,277
37853977,3,Niedersachsen,SK Braunschweig,A60-A79,W,1,1,2020/04/14 00:00:00,3101,"24.09.2020, 00:00 Uhr",0,0,2020/04/06 00:00:00,-9,0,1,Nicht übermittelt,,,278
37853993,3,Niedersachsen,SK Braunschweig,A80+,M,1,0,2020/04/14 00:00:00,3101,"24.09.2020, 00:00 Uhr",0,-9,2020/04/07 00:00:00,0,1,1,Nicht übermittelt,,,279
37854010,3,Niedersachsen,SK Braunschweig,A80+,W,1,1,2020/04/14 00:00:00,3101,"24.09.2020, 00:00 Uhr",0,0,2020/04/14 00:00:00,-9,0,0,Nicht übermittelt,,,280
37853720,3,Niedersachsen,SK Braunschweig,A15-A34,W,1,0,2020/04/15 00:00:00,3101,"24.09.2020, 00:00 Uhr",0,-9,2020/04/15 00:00:00,0,1,1,Nicht übermittelt,,,281
37853875,3,Niedersachsen,SK Braunschweig,A35-A59,W,2,0,2020/04/15 00:00:00,3101,"24.09.2020, 00:00 Uhr",0,-9,2020/04/12 00:00:00,0,2,1,Nicht übermittelt,,,283
37853978,3,Niedersachsen,SK Braunschweig,A60-A79,W,1,0,2020/04/15 00:00:00,3101,"24.09.2020, 00:00 Uhr",0,-9,2020/04/11 00:00:00,0,1,1,Nicht übermittelt,,,284
37853721,3,Niedersachsen,SK Braunschweig,A15-A34,W,1,0,2020/04/16 00:00:00,3101,"24.09.2020, 00:00 Uhr",0,-9,2020/04/11 00:00:00,0,1,1,Nicht übermittelt,,,285
37853876,3,Niedersachsen,SK Braunschweig,A35-A59,W,1,0,2020/04/16 00:00:00,3101,"24.09.2020, 00:00 Uhr",0,-9,2020/04/12 00:00:00,0,1,1,Nicht übermittelt,,,286
37854011,3,Niedersachsen,SK Braunschweig,A80+,W,1,0,2020/04/16 00:00:00,3101,"24.09.2020, 00:00 Uhr",0,-9,2020/04/04 00:00:00,0,1,1,Nicht übermittelt,,,287
37853722,3,Niedersachsen,SK Braunschweig,A15-A34,W,1,0,2020/04/17 00:00:00,3101,"24.09.2020, 00:00 Uhr",0,-9,2020/04/14 00:00:00,0,1,1,Nicht übermittelt,,,288
37853877,3,Niedersachsen,SK Braunschweig,A35-A59,W,1,0,2020/04/17 00:00:00,3101,"24.09.2020, 00:00 Uhr",0,-9,2020/04/07 00:00:00,0,1,1,Nicht übermittelt,,,289
37853723,3,Niedersachsen,SK Braunschweig,A15-A34,W,1,0,2020/04/18 00:00:00,3101,"24.09.2020, 00:00 Uhr",0,-9,2020/04/14 00:00:00,0,1,1,Nicht übermittelt,,,290
37853937,3,Niedersachsen,SK Braunschweig,A60-A79,M,1,0,2020/04/18 00:00:00,3101,"24.09.2020, 00:00 Uhr",0,-9,2020/04/14 00:00:00,0,1,1,Nicht übermittelt,,,291
37853994,3,Niedersachsen,SK Braunschweig,A80+,M,1,0,2020/04/20 00:00:00,3101,"24.09.2020, 00:00 Uhr",0,-9,2020/04/13 00:00:00,0,1,1,Nicht übermittelt,,,292
37853791,3,Niedersachsen,SK Braunschweig,A35-A59,M,1,0,2020/04/22 00:00:00,3101,"24.09.2020, 00:00 Uhr",0,-9,2020/04/19 00:00:00,0,1,1,Nicht übermittelt,,,293
37853938,3,Niedersachsen,SK Braunschweig,A60-A79,M,1,0,2020/04/22 00:00:00,3101,"24.09.2020, 00:00 Uhr",0,-9,2020/04/16 00:00:00,0,1,1,Nicht übermittelt,,,294
37853724,3,Niedersachsen,SK Braunschweig,A15-A34,W,1,0,2020/04/24 00:00:00,3101,"24.09.2020, 00:00 Uhr",0,-9,2020/04/22 00:00:00,0,1,1,Nicht übermittelt,,,295
37853792,3,Niedersachsen,SK Braunschweig,A35-A59,M,1,1,2020/04/24 00:00:00,3101,"24.09.2020, 00:00 Uhr",0,0,2020/04/23 00:00:00,-9,0,1,Nicht übermittelt,,,296
37853878,3,Niedersachsen,SK Braunschweig,A35-A59,W,1,0,2020/04/24 00:00:00,3101,"24.09.2020, 00:00 Uhr",0,-9,2020/04/02 00:00:00,0,1,1,Nicht übermittelt,,,297
37853939,3,Niedersachsen,SK Braunschweig,A60-A79,M,1,0,2020/04/24 00:00:00,3101,"24.09.2020, 00:00 Uhr",0,-9,2020/04/21 00:00:00,0,1,1,Nicht übermittelt,,,298
37853979,3,Niedersachsen,SK Braunschweig,A60-A79,W,1,0,2020/04/24 00:00:00,3101,"24.09.2020, 00:00 Uhr",0,-9,2020/04/21 00:00:00,0,1,1,Nicht übermittelt,,,299
37853980,3,Niedersachsen,SK Braunschweig,A60-A79,W,1,0,2020/04/25 00:00:00,3101,"24.09.2020, 00:00 Uhr",0,-9,2020/04/24 00:00:00,0,1,1,Nicht übermittelt,,,300
37853793,3,Niedersachsen,SK Braunschweig,A35-A59,M,1,0,2020/04/26 00:00:00,3101,"24.09.2020, 00:00 Uhr",0,-9,2020/03/23 00:00:00,0,1,1,Nicht übermittelt,,,301
37853879,3,Niedersachsen,SK Braunschweig,A35-A59,W,1,0,2020/04/28 00:00:00,3101,"24.09.2020, 00:00 Uhr",0,-9,2020/04/02 00:00:00,0,1,1,Nicht übermittelt,,,302
37853725,3,Niedersachsen,SK Braunschweig,A15-A34,W,1,0,2020/04/29 00:00:00,3101,"24.09.2020, 00:00 Uhr",0,-9,2020/04/29 00:00:00,0,1,0,Nicht übermittelt,,,303
37853794,3,Niedersachsen,SK Braunschweig,A35-A59,M,1,0,2020/04/29 00:00:00,3101,"24.09.2020, 00:00 Uhr",0,-9,2020/04/26 00:00:00,0,1,1,Nicht übermittelt,,,304
37853995,3,Niedersachsen,SK Braunschweig,A80+,M,1,1,2020/04/29 00:00:00,3101,"24.09.2020, 00:00 Uhr",0,0,2020/04/29 00:00:00,-9,0,0,Nicht übermittelt,,,305
37853940,3,Niedersachsen,SK Braunschweig,A60-A79,M,1,0,2020/05/01 00:00:00,3101,"24.09.2020, 00:00 Uhr",0,-9,2020/05/01 00:00:00,0,1,0,Nicht übermittelt,,,306
37853726,3,Niedersachsen,SK Braunschweig,A15-A34,W,1,0,2020/05/02 00:00:00,3101,"24.09.2020, 00:00 Uhr",0,-9,2020/04/28 00:00:00,0,1,1,Nicht übermittelt,,,307
37853880,3,Niedersachsen,SK Braunschweig,A35-A59,W,1,0,2020/05/05 00:00:00,3101,"24.09.2020, 00:00 Uhr",0,-9,2020/04/30 00:00:00,0,1,1,Nicht übermittelt,,,308
37853648,3,Niedersachsen,SK Braunschweig,A15-A34,M,1,0,2020/05/07 00:00:00,3101,"24.09.2020, 00:00 Uhr",0,-9,2020/04/30 00:00:00,0,1,1,Nicht übermittelt,,,309
37853795,3,Niedersachsen,SK Braunschweig,A35-A59,M,1,0,2020/05/07 00:00:00,3101,"24.09.2020, 00:00 Uhr",0,-9,2020/04/30 00:00:00,0,1,1,Nicht übermittelt,,,310
37853881,3,Niedersachsen,SK Braunschweig,A35-A59,W,1,0,2020/05/07 00:00:00,3101,"24.09.2020, 00:00 Uhr",0,-9,2020/05/01 00:00:00,0,1,1,Nicht übermittelt,,,311
37853882,3,Niedersachsen,SK Braunschweig,A35-A59,W,1,0,2020/05/07 00:00:00,3101,"24.09.2020, 00:00 Uhr",0,-9,2020/05/02 00:00:00,0,1,1,Nicht übermittelt,,,312
37853796,3,Niedersachsen,SK Braunschweig,A35-A59,M,1,0,2020/05/08 00:00:00,3101,"24.09.2020, 00:00 Uhr",0,-9,2020/05/06 00:00:00,0,1,1,Nicht übermittelt,,,313
37853621,3,Niedersachsen,SK Braunschweig,A05-A14,M,1,0,2020/05/09 00:00:00,3101,"24.09.2020, 00:00 Uhr",0,-9,2020/05/02 00:00:00,0,1,1,Nicht übermittelt,,,314
37853883,3,Niedersachsen,SK Braunschweig,A35-A59,W,1,0,2020/05/09 00:00:00,3101,"24.09.2020, 00:00 Uhr",0,-9,2020/05/02 00:00:00,0,1,1,Nicht übermittelt,,,315
37853797,3,Niedersachsen,SK Braunschweig,A35-A59,M,1,0,2020/05/10 00:00:00,3101,"24.09.2020, 00:00 Uhr",0,-9,2020/05/07 00:00:00,0,1,1,Nicht übermittelt,,,316
37853727,3,Niedersachsen,SK Braunschweig,A15-A34,W,1,0,2020/05/11 00:00:00,3101,"24.09.2020, 00:00 Uhr",0,-9,2020/05/07 00:00:00,0,1,1,Nicht übermittelt,,,317
37853884,3,Niedersachsen,SK Braunschweig,A35-A59,W,1,0,2020/05/11 00:00:00,3101,"24.09.2020, 00:00 Uhr",0,-9,2020/05/06 00:00:00,0,1,1,Nicht übermittelt,,,318
37853941,3,Niedersachsen,SK Braunschweig,A60-A79,M,1,0,2020/05/11 00:00:00,3101,"24.09.2020, 00:00 Uhr",0,-9,2020/05/08 00:00:00,0,1,1,Nicht übermittelt,,,319
37853981,3,Niedersachsen,SK Braunschweig,A60-A79,W,1,0,2020/05/12 00:00:00,3101,"24.09.2020, 00:00 Uhr",0,-9,2020/05/08 00:00:00,0,1,1,Nicht übermittelt,,,320
37853728,3,Niedersachsen,SK Braunschweig,A15-A34,W,1,0,2020/05/13 00:00:00,3101,"24.09.2020, 00:00 Uhr",0,-9,2020/05/09 00:00:00,0,1,1,Nicht übermittelt,,,321
37853729,3,Niedersachsen,SK Braunschweig,A15-A34,W,1,0,2020/05/13 00:00:00,3101,"24.09.2020, 00:00 Uhr",0,-9,2020/05/10 00:00:00,0,1,1,Nicht übermittelt,,,322
37853885,3,Niedersachsen,SK Braunschweig,A35-A59,W,1,0,2020/05/13 00:00:00,3101,"24.09.2020, 00:00 Uhr",0,-9,2020/05/09 00:00:00,0,1,1,Nicht übermittelt,,,323
37853649,3,Niedersachsen,SK Braunschweig,A15-A34,M,1,0,2020/05/16 00:00:00,3101,"24.09.2020, 00:00 Uhr",0,-9,2020/05/13 00:00:00,0,1,1,Nicht übermittelt,,,324
37853942,3,Niedersachsen,SK Braunschweig,A60-A79,M,1,1,2020/05/16 00:00:00,3101,"24.09.2020, 00:00 Uhr",0,0,2020/05/16 00:00:00,-9,0,0,Nicht übermittelt,,,325
37853982,3,Niedersachsen,SK Braunschweig,A60-A79,W,1,0,2020/05/16 00:00:00,3101,"24.09.2020, 00:00 Uhr",0,-9,2020/05/12 00:00:00,0,1,1,Nicht übermittelt,,,326
37853983,3,Niedersachsen,SK Braunschweig,A60-A79,W,1,0,2020/05/22 00:00:00,3101,"24.09.2020, 00:00 Uhr",0,-9,2020/05/18 00:00:00,0,1,1,Nicht übermittelt,,,327
37853650,3,Niedersachsen,SK Braunschweig,A15-A34,M,1,0,2020/05/27 00:00:00,3101,"24.09.2020, 00:00 Uhr",0,-9,2020/05/26 00:00:00,0,1,1,Nicht übermittelt,,,328
37853798,3,Niedersachsen,SK Braunschweig,A35-A59,M,1,0,2020/05/28 00:00:00,3101,"24.09.2020, 00:00 Uhr",0,-9,2020/05/28 00:00:00,0,1,0,Nicht übermittelt,,,329
37853943,3,Niedersachsen,SK Braunschweig,A60-A79,M,1,0,2020/05/28 00:00:00,3101,"24.09.2020, 00:00 Uhr",0,-9,2020/05/27 00:00:00,0,1,1,Nicht übermittelt,,,330
37853886,3,Niedersachsen,SK Braunschweig,A35-A59,W,1,0,2020/06/03 00:00:00,3101,"24.09.2020, 00:00 Uhr",0,-9,2020/06/02 00:00:00,0,1,1,Nicht übermittelt,,,331
37853651,3,Niedersachsen,SK Braunschweig,A15-A34,M,1,0,2020/06/18 00:00:00,3101,"24.09.2020, 00:00 Uhr",0,-9,2020/06/17 00:00:00,0,1,1,Nicht übermittelt,,,332
37853652,3,Niedersachsen,SK Braunschweig,A15-A34,M,1,0,2020/06/20 00:00:00,3101,"24.09.2020, 00:00 Uhr",0,-9,2020/06/11 00:00:00,0,1,1,Nicht übermittelt,,,333
37853799,3,Niedersachsen,SK Braunschweig,A35-A59,M,1,0,2020/06/22 00:00:00,3101,"24.09.2020, 00:00 Uhr",0,-9,2020/06/13 00:00:00,0,1,1,Nicht übermittelt,,,334
37853887,3,Niedersachsen,SK Braunschweig,A35-A59,W,1,0,2020/06/23 00:00:00,3101,"24.09.2020, 00:00 Uhr",0,-9,2020/06/23 00:00:00,0,1,0,Nicht übermittelt,,,335
37853653,3,Niedersachsen,SK Braunschweig,A15-A34,M,1,0,2020/06/25 00:00:00,3101,"24.09.2020, 00:00 Uhr",0,-9,2020/06/17 00:00:00,0,1,1,Nicht übermittelt,,,336
37853888,3,Niedersachsen,SK Braunschweig,A35-A59,W,1,0,2020/06/27 00:00:00,3101,"24.09.2020, 00:00 Uhr",0,-9,2020/06/27 00:00:00,0,1,0,Nicht übermittelt,,,337
37853654,3,Niedersachsen,SK Braunschweig,A15-A34,M,1,0,2020/06/30 00:00:00,3101,"24.09.2020, 00:00 Uhr",0,-9,2020/06/30 00:00:00,0,1,0,Nicht übermittelt,,,338
37853611,3,Niedersachsen,SK Braunschweig,A00-A04,M,1,0,2020/07/03 00:00:00,3101,"24.09.2020, 00:00 Uhr",0,-9,2020/07/03 00:00:00,0,1,0,Nicht übermittelt,,,339
37853622,3,Niedersachsen,SK Braunschweig,A05-A14,M,3,0,2020/07/03 00:00:00,3101,"24.09.2020, 00:00 Uhr",0,-9,2020/07/03 00:00:00,0,3,0,Nicht übermittelt,,,342
37853655,3,Niedersachsen,SK Braunschweig,A15-A34,M,2,0,2020/07/03 00:00:00,3101,"24.09.2020, 00:00 Uhr",0,-9,2020/07/03 00:00:00,0,2,0,Nicht übermittelt,,,344
37853730,3,Niedersachsen,SK Braunschweig,A15-A34,W,3,0,2020/07/03 00:00:00,3101,"24.09.2020, 00:00 Uhr",0,-9,2020/07/03 00:00:00,0,3,0,Nicht übermittelt,,,347
37853800,3,Niedersachsen,SK Braunschweig,A35-A59,M,2,0,2020/07/03 00:00:00,3101,"24.09.2020, 00:00 Uhr",0,-9,2020/07/03 00:00:00,0,2,0,Nicht übermittelt,,,349
37853889,3,Niedersachsen,SK Braunschweig,A35-A59,W,2,0,2020/07/03 00:00:00,3101,"24.09.2020, 00:00 Uhr",0,-9,2020/07/03 00:00:00,0,2,0,Nicht übermittelt,,,351
37853801,3,Niedersachsen,SK Braunschweig,A35-A59,M,1,0,2020/07/10 00:00:00,3101,"24.09.2020, 00:00 Uhr",0,-9,2020/07/10 00:00:00,0,1,0,Nicht übermittelt,,,352
37853890,3,Niedersachsen,SK Braunschweig,A35-A59,W,1,0,2020/07/20 00:00:00,3101,"24.09.2020, 00:00 Uhr",0,-9,2020/07/13 00:00:00,0,1,1,Nicht übermittelt,,,353
37853802,3,Niedersachsen,SK Braunschweig,A35-A59,M,1,0,2020/07/22 00:00:00,3101,"24.09.2020, 00:00 Uhr",0,-9,2020/07/17 00:00:00,0,1,1,Nicht übermittelt,,,354
37853656,3,Niedersachsen,SK Braunschweig,A15-A34,M,1,0,2020/07/28 00:00:00,3101,"24.09.2020, 00:00 Uhr",0,-9,2020/07/28 00:00:00,0,1,0,Nicht übermittelt,,,355
37853657,3,Niedersachsen,SK Braunschweig,A15-A34,M,1,0,2020/07/29 00:00:00,3101,"24.09.2020, 00:00 Uhr",0,-9,2020/07/20 00:00:00,0,1,1,Nicht übermittelt,,,356
37853891,3,Niedersachsen,SK Braunschweig,A35-A59,W,1,0,2020/07/30 00:00:00,3101,"24.09.2020, 00:00 Uhr",0,-9,2020/07/30 00:00:00,0,1,0,Nicht übermittelt,,,357
37853803,3,Niedersachsen,SK Braunschweig,A35-A59,M,1,0,2020/08/03 00:00:00,3101,"24.09.2020, 00:00 Uhr",0,-9,2020/07/31 00:00:00,0,1,1,Nicht übermittelt,,,358
37853892,3,Niedersachsen,SK Braunschweig,A35-A59,W,1,0,2020/08/03 00:00:00,3101,"24.09.2020, 00:00 Uhr",0,-9,2020/08/03 00:00:00,0,1,0,Nicht übermittelt,,,359
37853658,3,Niedersachsen,SK Braunschweig,A15-A34,M,1,0,2020/08/05 00:00:00,3101,"24.09.2020, 00:00 Uhr",0,-9,2020/07/31 00:00:00,0,1,1,Nicht übermittelt,,,360
37853893,3,Niedersachsen,SK Braunschweig,A35-A59,W,1,0,2020/08/05 00:00:00,3101,"24.09.2020, 00:00 Uhr",0,-9,2020/08/05 00:00:00,0,1,0,Nicht übermittelt,,,361
37853944,3,Niedersachsen,SK Braunschweig,A60-A79,M,1,0,2020/08/05 00:00:00,3101,"24.09.2020, 00:00 Uhr",0,-9,2020/08/05 00:00:00,0,1,0,Nicht übermittelt,,,362
37853731,3,Niedersachsen,SK Braunschweig,A15-A34,W,1,0,2020/08/07 00:00:00,3101,"24.09.2020, 00:00 Uhr",0,-9,2020/07/27 00:00:00,0,1,1,Nicht übermittelt,,,363
37853804,3,Niedersachsen,SK Braunschweig,A35-A59,M,2,0,2020/08/08 00:00:00,3101,"24.09.2020, 00:00 Uhr",0,-9,2020/08/07 00:00:00,0,2,1,Nicht übermittelt,,,365
37853732,3,Niedersachsen,SK Braunschweig,A15-A34,W,1,0,2020/08/11 00:00:00,3101,"24.09.2020, 00:00 Uhr",0,-9,2020/08/11 00:00:00,0,1,1,Nicht übermittelt,,,366
37853659,3,Niedersachsen,SK Braunschweig,A15-A34,M,1,0,2020/08/12 00:00:00,3101,"24.09.2020, 00:00 Uhr",0,-9,2020/08/12 00:00:00,0,1,0,Nicht übermittelt,,,367
37853805,3,Niedersachsen,SK Braunschweig,A35-A59,M,1,0,2020/08/12 00:00:00,3101,"24.09.2020, 00:00 Uhr",0,-9,2020/08/12 00:00:00,0,1,0,Nicht übermittelt,,,368
37853660,3,Niedersachsen,SK Braunschweig,A15-A34,M,1,0,2020/08/14 00:00:00,3101,"24.09.2020, 00:00 Uhr",0,-9,2020/08/14 00:00:00,0,1,0,Nicht übermittelt,,,369
37853733,3,Niedersachsen,SK Braunschweig,A15-A34,W,1,0,2020/08/14 00:00:00,3101,"24.09.2020, 00:00 Uhr",0,-9,2020/08/14 00:00:00,0,1,0,Nicht übermittelt,,,370
37853996,3,Niedersachsen,SK Braunschweig,A80+,M,1,0,2020/08/14 00:00:00,3101,"24.09.2020, 00:00 Uhr",0,-9,2020/08/14 00:00:00,0,1,0,Nicht übermittelt,,,371
37853661,3,Niedersachsen,SK Braunschweig,A15-A34,M,1,0,2020/08/15 00:00:00,3101,"24.09.2020, 00:00 Uhr",0,-9,2020/08/15 00:00:00,0,1,0,Nicht übermittelt,,,372
37853662,3,Niedersachsen,SK Braunschweig,A15-A34,M,1,0,2020/08/17 00:00:00,3101,"24.09.2020, 00:00 Uhr",0,-9,2020/08/17 00:00:00,0,1,0,Nicht übermittelt,,,373
37853663,3,Niedersachsen,SK Braunschweig,A15-A34,M,2,0,2020/08/18 00:00:00,3101,"24.09.2020, 00:00 Uhr",0,-9,2020/08/18 00:00:00,0,2,0,Nicht übermittelt,,,375
37853734,3,Niedersachsen,SK Braunschweig,A15-A34,W,1,0,2020/08/18 00:00:00,3101,"24.09.2020, 00:00 Uhr",0,-9,2020/08/18 00:00:00,0,1,0,Nicht übermittelt,,,376
37853735,3,Niedersachsen,SK Braunschweig,A15-A34,W,1,0,2020/08/19 00:00:00,3101,"24.09.2020, 00:00 Uhr",0,-9,2020/08/19 00:00:00,0,1,0,Nicht übermittelt,,,377
37853894,3,Niedersachsen,SK Braunschweig,A35-A59,W,1,0,2020/08/19 00:00:00,3101,"24.09.2020, 00:00 Uhr",0,-9,2020/08/19 00:00:00,0,1,0,Nicht übermittelt,,,378
37853664,3,Niedersachsen,SK Braunschweig,A15-A34,M,1,0,2020/08/20 00:00:00,3101,"24.09.2020, 00:00 Uhr",0,-9,2020/08/20 00:00:00,0,1,0,Nicht übermittelt,,,379
37853736,3,Niedersachsen,SK Braunschweig,A15-A34,W,1,0,2020/08/20 00:00:00,3101,"24.09.2020, 00:00 Uhr",0,-9,2020/08/20 00:00:00,0,1,0,Nicht übermittelt,,,380
37853665,3,Niedersachsen,SK Braunschweig,A15-A34,M,1,0,2020/08/21 00:00:00,3101,"24.09.2020, 00:00 Uhr",0,-9,2020/08/21 00:00:00,0,1,0,Nicht übermittelt,,,381
37853737,3,Niedersachsen,SK Braunschweig,A15-A34,W,1,0,2020/08/21 00:00:00,3101,"24.09.2020, 00:00 Uhr",0,-9,2020/08/21 00:00:00,0,1,0,Nicht übermittelt,,,382
37853666,3,Niedersachsen,SK Braunschweig,A15-A34,M,1,0,2020/08/22 00:00:00,3101,"24.09.2020, 00:00 Uhr",0,-9,2020/08/22 00:00:00,0,1,0,Nicht übermittelt,,,383
37853984,3,Niedersachsen,SK Braunschweig,A60-A79,W,1,0,2020/08/22 00:00:00,3101,"24.09.2020, 00:00 Uhr",0,-9,2020/08/22 00:00:00,0,1,0,Nicht übermittelt,,,384
37853667,3,Niedersachsen,SK Braunschweig,A15-A34,M,1,0,2020/08/23 00:00:00,3101,"24.09.2020, 00:00 Uhr",0,-9,2020/08/17 00:00:00,0,1,1,Nicht übermittelt,,,385
37853806,3,Niedersachsen,SK Braunschweig,A35-A59,M,1,0,2020/08/23 00:00:00,3101,"24.09.2020, 00:00 Uhr",0,-9,2020/08/23 00:00:00,0,1,0,Nicht übermittelt,,,386
37853668,3,Niedersachsen,SK Braunschweig,A15-A34,M,1,0,2020/08/24 00:00:00,3101,"24.09.2020, 00:00 Uhr",0,-9,2020/08/24 00:00:00,0,1,0,Nicht übermittelt,,,387
37853807,3,Niedersachsen,SK Braunschweig,A35-A59,M,1,0,2020/08/24 00:00:00,3101,"24.09.2020, 00:00 Uhr",0,-9,2020/08/24 00:00:00,0,1,0,Nicht übermittelt,,,388
37853623,3,Niedersachsen,SK Braunschweig,A05-A14,M,2,0,2020/08/25 00:00:00,3101,"24.09.2020, 00:00 Uhr",0,-9,2020/08/25 00:00:00,0,2,0,Nicht übermittelt,,,390
37853625,3,Niedersachsen,SK Braunschweig,A05-A14,W,1,0,2020/08/25 00:00:00,3101,"24.09.2020, 00:00 Uhr",0,-9,2020/08/25 00:00:00,0,1,0,Nicht übermittelt,,,391
37853669,3,Niedersachsen,SK Braunschweig,A15-A34,M,1,0,2020/08/25 00:00:00,3101,"24.09.2020, 00:00 Uhr",0,-9,2020/08/25 00:00:00,0,1,0,Nicht übermittelt,,,392
37853738,3,Niedersachsen,SK Braunschweig,A15-A34,W,1,0,2020/08/25 00:00:00,3101,"24.09.2020, 00:00 Uhr",0,-9,2020/08/25 00:00:00,0,1,0,Nicht übermittelt,,,393
37853808,3,Niedersachsen,SK Braunschweig,A35-A59,M,1,0,2020/08/25 00:00:00,3101,"24.09.2020, 00:00 Uhr",0,-9,2020/08/25 00:00:00,0,1,0,Nicht übermittelt,,,394
37853809,3,Niedersachsen,SK Braunschweig,A35-A59,M,1,0,2020/08/26 00:00:00,3101,"24.09.2020, 00:00 Uhr",0,-9,2020/08/14 00:00:00,0,1,1,Nicht übermittelt,,,395
37853895,3,Niedersachsen,SK Braunschweig,A35-A59,W,1,0,2020/08/26 00:00:00,3101,"24.09.2020, 00:00 Uhr",0,-9,2020/08/26 00:00:00,0,1,0,Nicht übermittelt,,,396
37853896,3,Niedersachsen,SK Braunschweig,A35-A59,W,1,0,2020/08/27 00:00:00,3101,"24.09.2020, 00:00 Uhr",0,-9,2020/08/27 00:00:00,0,1,0,Nicht übermittelt,,,397
37853670,3,Niedersachsen,SK Braunschweig,A15-A34,M,1,0,2020/08/28 00:00:00,3101,"24.09.2020, 00:00 Uhr",0,-9,2020/08/28 00:00:00,0,1,0,Nicht übermittelt,,,398
37853897,3,Niedersachsen,SK Braunschweig,A35-A59,W,1,0,2020/08/28 00:00:00,3101,"24.09.2020, 00:00 Uhr",0,-9,2020/08/28 00:00:00,0,1,0,Nicht übermittelt,,,399
37853671,3,Niedersachsen,SK Braunschweig,A15-A34,M,1,0,2020/08/30 00:00:00,3101,"24.09.2020, 00:00 Uhr",0,-9,2020/08/28 00:00:00,0,1,1,Nicht übermittelt,,,400
37853739,3,Niedersachsen,SK Braunschweig,A15-A34,W,1,0,2020/08/30 00:00:00,3101,"24.09.2020, 00:00 Uhr",0,-9,2020/08/24 00:00:00,0,1,1,Nicht übermittelt,,,401
37853740,3,Niedersachsen,SK Braunschweig,A15-A34,W,1,0,2020/08/30 00:00:00,3101,"24.09.2020, 00:00 Uhr",0,-9,2020/08/30 00:00:00,0,1,0,Nicht übermittelt,,,402
37853810,3,Niedersachsen,SK Braunschweig,A35-A59,M,1,0,2020/08/30 00:00:00,3101,"24.09.2020, 00:00 Uhr",0,-9,2020/08/30 00:00:00,-9,0,0,Nicht übermittelt,,,403
37853811,3,Niedersachsen,SK Braunschweig,A35-A59,M,1,0,2020/08/30 00:00:00,3101,"24.09.2020, 00:00 Uhr",0,-9,2020/08/30 00:00:00,0,1,0,Nicht übermittelt,,,404
37853898,3,Niedersachsen,SK Braunschweig,A35-A59,W,1,0,2020/08/30 00:00:00,3101,"24.09.2020, 00:00 Uhr",0,-9,2020/08/30 00:00:00,0,1,0,Nicht übermittelt,,,405
37853672,3,Niedersachsen,SK Braunschweig,A15-A34,M,1,0,2020/08/31 00:00:00,3101,"24.09.2020, 00:00 Uhr",0,-9,2020/08/30 00:00:00,0,1,1,Nicht übermittelt,,,406
37853673,3,Niedersachsen,SK Braunschweig,A15-A34,M,1,0,2020/08/31 00:00:00,3101,"24.09.2020, 00:00 Uhr",0,-9,2020/08/31 00:00:00,0,1,0,Nicht übermittelt,,,407
37853899,3,Niedersachsen,SK Braunschweig,A35-A59,W,2,0,2020/09/01 00:00:00,3101,"24.09.2020, 00:00 Uhr",0,-9,2020/09/01 00:00:00,0,2,0,Nicht übermittelt,,,409
37853614,3,Niedersachsen,SK Braunschweig,A00-A04,W,1,0,2020/09/02 00:00:00,3101,"24.09.2020, 00:00 Uhr",0,-9,2020/09/02 00:00:00,0,1,0,Nicht übermittelt,,,410
37853812,3,Niedersachsen,SK Braunschweig,A35-A59,M,2,0,2020/09/02 00:00:00,3101,"24.09.2020, 00:00 Uhr",0,-9,2020/09/02 00:00:00,0,2,0,Nicht übermittelt,,,412
37853626,3,Niedersachsen,SK Braunschweig,A05-A14,W,1,0,2020/09/03 00:00:00,3101,"24.09.2020, 00:00 Uhr",0,-9,2020/09/03 00:00:00,0,1,0,Nicht übermittelt,,,413
37853674,3,Niedersachsen,SK Braunschweig,A15-A34,M,1,0,2020/09/04 00:00:00,3101,"24.09.2020, 00:00 Uhr",0,-9,2020/09/01 00:00:00,0,1,1,Nicht übermittelt,,,414
37853675,3,Niedersachsen,SK Braunschweig,A15-A34,M,1,0,2020/09/05 00:00:00,3101,"24.09.2020, 00:00 Uhr",0,-9,2020/09/05 00:00:00,0,1,0,Nicht übermittelt,,,415
37853741,3,Niedersachsen,SK Braunschweig,A15-A34,W,1,0,2020/09/05 00:00:00,3101,"24.09.2020, 00:00 Uhr",0,-9,2020/09/05 00:00:00,0,1,0,Nicht übermittelt,,,416
37853900,3,Niedersachsen,SK Braunschweig,A35-A59,W,1,0,2020/09/05 00:00:00,3101,"24.09.2020, 00:00 Uhr",0,-9,2020/09/05 00:00:00,0,1,0,Nicht übermittelt,,,417
37853742,3,Niedersachsen,SK Braunschweig,A15-A34,W,1,0,2020/09/07 00:00:00,3101,"24.09.2020, 00:00 Uhr",0,-9,2020/08/31 00:00:00,0,1,1,Nicht übermittelt,,,418
37853901,3,Niedersachsen,SK Braunschweig,A35-A59,W,1,0,2020/09/07 00:00:00,3101,"24.09.2020, 00:00 Uhr",0,-9,2020/09/07 00:00:00,0,1,0,Nicht übermittelt,,,419
37853676,3,Niedersachsen,SK Braunschweig,A15-A34,M,1,0,2020/09/09 00:00:00,3101,"24.09.2020, 00:00 Uhr",0,-9,2020/09/09 00:00:00,0,1,0,Nicht übermittelt,,,420
37853902,3,Niedersachsen,SK Braunschweig,A35-A59,W,2,0,2020/09/10 00:00:00,3101,"24.09.2020, 00:00 Uhr",0,-9,2020/09/10 00:00:00,1,2,0,Nicht übermittelt,,,422
37853813,3,Niedersachsen,SK Braunschweig,A35-A59,M,1,0,2020/09/11 00:00:00,3101,"24.09.2020, 00:00 Uhr",0,-9,2020/09/11 00:00:00,-9,0,0,Nicht übermittelt,,,423
37853677,3,Niedersachsen,SK Braunschweig,A15-A34,M,3,0,2020/09/12 00:00:00,3101,"24.09.2020, 00:00 Uhr",0,-9,2020/09/12 00:00:00,-9,0,0,Nicht übermittelt,,,426
37853743,3,Niedersachsen,SK Braunschweig,A15-A34,W,2,0,2020/09/12 00:00:00,3101,"24.09.2020, 00:00 Uhr",0,-9,2020/09/12 00:00:00,-9,0,0,Nicht übermittelt,,,428
37853744,3,Niedersachsen,SK Braunschweig,A15-A34,W,1,0,2020/09/14 00:00:00,3101,"24.09.2020, 00:00 Uhr",0,-9,2020/09/14 00:00:00,-9,0,0,Nicht übermittelt,,,429
37853678,3,Niedersachsen,SK Braunschweig,A15-A34,M,1,0,2020/09/15 00:00:00,3101,"24.09.2020, 00:00 Uhr",0,-9,2020/09/15 00:00:00,-9,0,0,Nicht übermittelt,,,430
37853814,3,Niedersachsen,SK Braunschweig,A35-A59,M,2,0,2020/09/15 00:00:00,3101,"24.09.2020, 00:00 Uhr",0,-9,2020/09/15 00:00:00,-9,0,0,Nicht übermittelt,,,432
37853903,3,Niedersachsen,SK Braunschweig,A35-A59,W,2,0,2020/09/15 00:00:00,3101,"24.09.2020, 00:00 Uhr",0,-9,2020/09/15 00:00:00,-9,0,0,Nicht übermittelt,,,434
37853945,3,Niedersachsen,SK Braunschweig,A60-A79,M,1,0,2020/09/15 00:00:00,3101,"24.09.2020, 00:00 Uhr",0,-9,2020/09/15 00:00:00,-9,0,0,Nicht übermittelt,,,435
37853679,3,Niedersachsen,SK Braunschweig,A15-A34,M,1,0,2020/09/16 00:00:00,3101,"24.09.2020, 00:00 Uhr",0,-9,2020/09/16 00:00:00,-9,0,0,Nicht übermittelt,,,436
37853745,3,Niedersachsen,SK Braunschweig,A15-A34,W,1,0,2020/09/16 00:00:00,3101,"24.09.2020, 00:00 Uhr",0,-9,2020/09/16 00:00:00,-9,0,0,Nicht übermittelt,,,437
37853815,3,Niedersachsen,SK Braunschweig,A35-A59,M,1,0,2020/09/16 00:00:00,3101,"24.09.2020, 00:00 Uhr",0,-9,2020/09/16 00:00:00,-9,0,0,Nicht übermittelt,,,438
37853680,3,Niedersachsen,SK Braunschweig,A15-A34,M,1,0,2020/09/17 00:00:00,3101,"24.09.2020, 00:00 Uhr",0,-9,2020/09/17 00:00:00,-9,0,0,Nicht übermittelt,,,439
37853681,3,Niedersachsen,SK Braunschweig,A15-A34,M,2,0,2020/09/18 00:00:00,3101,"24.09.2020, 00:00 Uhr",0,-9,2020/09/18 00:00:00,-9,0,0,Nicht übermittelt,,,441
37853816,3,Niedersachsen,SK Braunschweig,A35-A59,M,1,0,2020/09/18 00:00:00,3101,"24.09.2020, 00:00 Uhr",0,-9,2020/09/18 00:00:00,-9,0,0,Nicht übermittelt,,,442
37853682,3,Niedersachsen,SK Braunschweig,A15-A34,M,4,0,2020/09/19 00:00:00,3101,"24.09.2020, 00:00 Uhr",0,-9,2020/09/19 00:00:00,-9,0,0,Nicht übermittelt,,,446
37853683,3,Niedersachsen,SK Braunschweig,A15-A34,M,1,0,2020/09/21 00:00:00,3101,"24.09.2020, 00:00 Uhr",0,-9,2020/09/21 00:00:00,-9,0,0,Nicht übermittelt,,,447
37853684,3,Niedersachsen,SK Braunschweig,A15-A34,M,6,0,2020/09/22 00:00:00,3101,"24.09.2020, 00:00 Uhr",1,-9,2020/09/22 00:00:00,-9,0,0,Nicht übermittelt,,,453
37853746,3,Niedersachsen,SK Braunschweig,A15-A34,W,2,0,2020/09/22 00:00:00,3101,"24.09.2020, 00:00 Uhr",1,-9,2020/09/22 00:00:00,-9,0,0,Nicht übermittelt,,,455
37853817,3,Niedersachsen,SK Braunschweig,A35-A59,M,1,0,2020/09/22 00:00:00,3101,"24.09.2020, 00:00 Uhr",1,-9,2020/09/22 00:00:00,-9,0,0,Nicht übermittelt,,,456
